waveforms/pipelined.vcd
$date
   Sat Jan 17 12:16:10 2026
$end

$version
  2025.1.0
  $dumpfile ("pipelined.vcd") 
$end

$timescale
  1ps
$end

$scope module tb_pipelined $end
$var reg 1 ! clk $end
$var reg 1 " reset $end
$scope module dut $end
$var wire 1 # clk $end
$var wire 1 $ reset $end
$var reg 97 % if_id_out $end
$var reg 162 & id_ex_out $end
$var reg 85 ' ex_mem_out $end
$var reg 85 ( mem_wb_out $end
$var reg 1 ) branch_taken $end
$var reg 32 * branch_target [31:0] $end
$var reg 1 + if_id_stall $end
$var reg 1 , if_id_flush $end
$var reg 1 - id_ex_stall $end
$var reg 1 . id_ex_flush $end
$var reg 1 / ex_mem_stall $end
$var reg 1 0 ex_mem_flush $end
$var reg 1 1 mem_wb_stall $end
$var reg 1 2 mem_wb_flush $end
$var reg 1 3 pc_stall $end
$var reg 5 4 wb_rd_addr [4:0] $end
$var reg 32 5 wb_write_data [31:0] $end
$var reg 1 6 wb_reg_write $end
$var reg 97 7 if_id_reg_out $end
$var reg 162 8 id_ex_reg_out $end
$var reg 85 9 mem_stage_out $end
$var reg 85 : ex_stage_out $end
$scope module if_stage_inst $end
$var wire 1 # clk $end
$var wire 1 $ reset $end
$var wire 1 ; branch_taken $end
$var wire 32 < branch_target [31:0] $end
$var wire 1 = pc_stall $end
$var reg 97 % if_id_out $end
$var reg 32 > pc [31:0] $end
$var reg 32 ? pc_next [31:0] $end
$var reg 32 @ pc_plus4 [31:0] $end
$var reg 32 A instruction [31:0] $end
$var reg 10 B imem_addr [9:0] $end
$var reg 1 C pc_en $end
$var reg 97 D xilinx_isim_temp_0_ln9_blkAssignCaching $end
$scope module pc_inst $end
$var wire 1 # clk $end
$var wire 1 $ reset $end
$var wire 1 E pc_en $end
$var wire 32 F pc_next [31:0] $end
$var reg 32 > pc [31:0] $end
$upscope $end
$scope module imem_inst $end
$var wire 10 G address [9:0] $end
$var reg 32 A instruction [31:0] $end
$upscope $end
$upscope $end
$scope module if_id_reg_inst $end
$var wire 1 # clk $end
$var wire 1 $ reset $end
$var wire 1 H stall $end
$var wire 1 I flush $end
$var reg 97 % in $end
$var reg 97 7 out $end
$upscope $end
$scope module id_stage_inst $end
$var wire 1 # clk $end
$var wire 1 $ reset $end
$var reg 97 7 if_id_in $end
$var wire 5 J wb_rd_addr [4:0] $end
$var wire 32 K wb_write_data [31:0] $end
$var wire 1 L wb_reg_write $end
$var reg 162 & id_ex_out $end
$var reg 5 M rs1_addr [4:0] $end
$var reg 5 N rs2_addr [4:0] $end
$var reg 5 O rd_addr [4:0] $end
$var reg 32 P rs1_data [31:0] $end
$var reg 32 Q rs2_data [31:0] $end
$var reg 32 R immediate [31:0] $end
$var reg 15 S ctrl $end
$var reg 3 T funct3_branch [2:0] $end
$var reg 162 U xilinx_isim_temp_1_ln13_blkAssignCaching $end
$scope module regfile_inst $end
$var wire 1 # clk $end
$var wire 1 $ reset $end
$var wire 5 V rs1_addr [4:0] $end
$var wire 5 W rs2_addr [4:0] $end
$var wire 5 J rd [4:0] $end
$var wire 32 K write_data [31:0] $end
$var wire 1 L wr_en $end
$var reg 32 P rs1_data [31:0] $end
$var reg 32 Q rs2_data [31:0] $end
$scope begin Block21_6 $end
$var reg 32 X i [31:0] $end
$upscope $end
$upscope $end
$scope module decoder_inst $end
$var wire 32 Y instruction [31:0] $end
$var reg 15 S ctrl $end
$var reg 7 Z opcode $end
$var reg 3 [ funct3_bits [2:0] $end
$var reg 7 \ funct7_bits [6:0] $end
$upscope $end
$scope module imm_gen_inst $end
$var wire 32 Y instruction [31:0] $end
$var reg 32 R immediate [31:0] $end
$var reg 7 ] opcode [6:0] $end
$var reg 32 ^ i_imm [31:0] $end
$var reg 32 _ s_imm [31:0] $end
$var reg 32 ` b_imm [31:0] $end
$var reg 32 a u_imm [31:0] $end
$var reg 32 b j_imm [31:0] $end
$upscope $end
$upscope $end
$scope module id_ex_reg_inst $end
$var wire 1 # clk $end
$var wire 1 $ reset $end
$var wire 1 c stall $end
$var wire 1 d flush $end
$var reg 162 & in $end
$var reg 162 8 out $end
$upscope $end
$scope module ex_stage_inst $end
$var wire 1 # clk $end
$var wire 1 $ reset $end
$var reg 162 8 id_ex_in $end
$var wire 32 e mem_alu_result [31:0] $end
$var wire 5 f mem_rd_addr [4:0] $end
$var wire 1 g mem_reg_write $end
$var wire 32 h wb_write_data [31:0] $end
$var wire 5 i wb_rd_addr [4:0] $end
$var wire 1 j wb_reg_write $end
$var reg 1 ) branch_taken $end
$var reg 32 * branch_target [31:0] $end
$var reg 85 : ex_mem_out $end
$var reg 32 k alu_a [31:0] $end
$var reg 32 l alu_b [31:0] $end
$var reg 32 m alu_result [31:0] $end
$var reg 1 n alu_zero $end
$var reg 32 o rs1_fwd [31:0] $end
$var reg 32 p rs2_fwd [31:0] $end
$var reg 2 q forward_a $end
$var reg 2 r forward_b $end
$var reg 7 s opcode $end
$var reg 3 t funct3_branch $end
$var reg 1 u is_jump $end
$var reg 85 v xilinx_isim_temp_10_ln22_blkAssignCaching $end
$scope module fwd_unit $end
$var wire 5 w id_ex_rs1_addr [4:0] $end
$var wire 5 x id_ex_rs2_addr [4:0] $end
$var wire 5 f ex_mem_rd_addr [4:0] $end
$var wire 1 g ex_mem_reg_write $end
$var wire 5 i mem_wb_rd_addr [4:0] $end
$var wire 1 j mem_wb_reg_write $end
$var reg 2 q forward_a $end
$var reg 2 r forward_b $end
$upscope $end
$scope module alu_inst $end
$var wire 32 y a [31:0] $end
$var wire 32 z b [31:0] $end
$var wire 4 { op $end
$var reg 1 n zero $end
$var reg 32 m result [31:0] $end
$var reg 5 | shift_amt [4:0] $end
$upscope $end
$scope module branch_unit_inst $end
$var wire 32 } rs1_data [31:0] $end
$var wire 32 ~ rs2_data [31:0] $end
$var wire 32 !! pc [31:0] $end
$var wire 32 "! imm [31:0] $end
$var wire 3 #! funct3 $end
$var wire 7 $! opcode $end
$var reg 1 ) branch_taken $end
$var reg 32 * branch_target [31:0] $end
$var reg 1 %! condition_met $end
$var reg 1 &! is_branch $end
$var reg 1 '! is_jal $end
$var reg 1 (! is_jalr $end
$var wire 1 )! is_jump $end
$upscope $end
$upscope $end
$scope module ex_mem_reg_inst $end
$var wire 1 # clk $end
$var wire 1 $ reset $end
$var wire 1 *! stall $end
$var wire 1 +! flush $end
$var reg 85 : in $end
$var reg 85 ' out $end
$upscope $end
$scope module mem_stage_inst $end
$var wire 1 # clk $end
$var wire 1 $ reset $end
$var reg 85 ' ex_mem_in $end
$var reg 85 9 mem_wb_out $end
$var reg 32 ,! mem_rdata [31:0] $end
$var reg 85 -! xilinx_isim_temp_16_ln7_blkAssignCaching $end
$scope module dmem_inst $end
$var wire 1 # clk $end
$var wire 32 .! addr [31:0] $end
$var wire 32 /! wdata [31:0] $end
$var wire 1 0! wr_en $end
$var wire 1 1! rd_en $end
$var wire 3 2! mem_op $end
$var reg 32 ,! rdata [31:0] $end
$var reg 32 3! word_addr [31:0] $end
$var reg 2 4! byte_offset [1:0] $end
$var reg 32 5! word [31:0] $end
$upscope $end
$upscope $end
$scope module mem_wb_reg_inst $end
$var wire 1 # clk $end
$var wire 1 $ reset $end
$var wire 1 6! stall $end
$var wire 1 7! flush $end
$var reg 85 9 in $end
$var reg 85 ( out $end
$upscope $end
$scope module wb_stage_inst $end
$var wire 1 # clk $end
$var wire 1 $ reset $end
$var reg 85 ( mem_wb_in $end
$var reg 5 4 wb_rd_addr [4:0] $end
$var reg 32 5 wb_write_data [31:0] $end
$var reg 1 6 wb_reg_write $end
$upscope $end
$scope module hazard_unit_inst $end
$var wire 5 8! id_ex_rs1_addr [4:0] $end
$var wire 5 9! id_ex_rs2_addr [4:0] $end
$var wire 5 :! id_ex_rd_addr [4:0] $end
$var wire 1 ;! id_ex_mem_read $end
$var wire 1 <! id_ex_valid $end
$var wire 5 =! if_id_rs1_addr [4:0] $end
$var wire 5 >! if_id_rs2_addr [4:0] $end
$var wire 1 ?! branch_taken $end
$var reg 1 3 pc_stall $end
$var reg 1 + if_id_stall $end
$var reg 1 , if_id_flush $end
$var reg 1 - id_ex_stall $end
$var reg 1 . id_ex_flush $end
$var reg 1 / ex_mem_stall $end
$var reg 1 0 ex_mem_flush $end
$var reg 1 1 mem_wb_stall $end
$var reg 1 2 mem_wb_flush $end
$var reg 1 @! load_use_hazard $end
$upscope $end
$upscope $end
$scope task load_hex $end
$upscope $end
$scope task check_register $end
$upscope $end
$upscope $end
$enddefinitions $end

#0
$dumpvars
0!
bx !!
1"
bx "!
0#
bx #!
1$
bx11 $!
bx1 %
0%!
bx00000000000000000000000000000000xxxxxxxxxxxxxxxxxx000000000000010x &
x&!
bx '
x'!
bx (
x(!
x)
x)!
bx *
0*!
0+
0+!
0,
b0 ,!
0-
bx00000000000000000000000000000000xxxxxxxxxxxxxxxxxxxxx -!
0.
bx .!
0/
bx /!
00
x0!
01
x1!
02
bx 2!
03
bx00 3!
bx 4
bx 4!
b0 5
b0 5!
x6
06!
bx 7
07!
bx 8
bx 8!
bx00000000000000000000000000000000xxxxxxxxxxxxxxxxxxxxx 9
bx 9!
bx :
bx :!
x;
x;!
bx <
x<!
0=
bx =!
bx >
bx >!
bx ?
x?!
bx @
x@!
bx A
bx B
1C
bx1 D
1E
bx F
bx G
0H
0I
bx J
b0 K
xL
bx M
bx N
bx O
bx P
bx Q
b0 R
b10 S
bx T
bx00000000000000000000000000000000xxxxxxxxxxxxxxxxxx000000000000010x U
bx V
bx W
b0 X
bx Y
bx Z
bx [
bx \
bx ]
bx ^
bx _
bx0 `
bx000000000000 a
bx0 b
0c
0d
bx e
bx f
xg
b0 h
bx i
xj
bx k
bx l
bx m
xn
bx o
bx p
b0 q
b0 r
bx11 s
bx t
xu
bx v
bx w
bx x
bx y
bx z
bx {
bx |
bx }
bx ~
$end

#5000
1!
b0 !!
b0 "!
1#
b0 #!
b10011 $!
b101000000000000010010011000000000000000000000000000001001 %
b1000100000000100 &
0&!
b0 '
0'!
b0 (
0(!
0)
0)!
b0 *
b0 -!
b0 .!
b0 /!
00!
01!
b0 2!
b0 3!
b0 4
b0 4!
06
b10011000000000000000000000000000000000 7
b0 8
b0 8!
b0 9
b0 9!
b0 :
b0 :!
0;
0;!
b0 <
0<!
b0 =!
b0 >
b0 >!
b100 ?
0?!
b100 @
0@!
b101000000000000010010011 A
b0 B
b101000000000000010010011000000000000000000000000000001001 D
b100 F
b0 G
b0 J
0L
b0 M
b0 N
b0 O
b0 P
b0 Q
b100010000000010 S
b0 T
b1000100000000100 U
b0 V
b0 W
b100000 X
b10011 Y
b10011 Z
b0 [
b0 \
b10011 ]
b0 ^
b0 _
b0 `
b0 a
b0 b
b0 e
b0 f
0g
b0 i
0j
b0 k
b0 l
b0 m
1n
b0 o
b0 p
b10011 s
b0 t
0u
b0 v
b0 w
b0 x
b0 y
b0 z
b0 {
b0 |
b0 }
b0 ~

#10000
0!
0#

#15000
1!
1#
b100000 X

#20000
0!
0#

#25000
1!
0"
1#
0$
b10000000000010100000000000100010011000000000000000000000000000010001 %
b10100000000001010000011000100000000101 &
b101000000000000010010011000000000000000000000000000001001 7
b1000100000000100 8
b1000100000000100 :
b100 >
b1010 >!
b1000 ?
b1000 @
b10100000000000100010011 A
b1 B
b10000000000010100000000000100010011000000000000000000000000000010001 D
b1000 F
b1 G
b1010 N
b1 O
b1010 R
b10100000000001010000011000100000000101 U
b1010 W
b101000000000000010010011 Y
b1010 ^
b1 _
b100000000000 `
b101000000000000000000000 a
b1010 b
b1000100000000100 v

#30000
0!
0#

#35000
1!
b1010 "!
1#
b100000000000001000001000000110110011000000000000000000000000000011001 %
b1000000000000000000000000000000000000000000000000000000000000000000000000000000000000000000000001010000000000101000101000100000000101 &
b1000100000000100 '
b1010 *
b1000100000000100 -!
b10 2!
b10000000000010100000000000100010011000000000000000000000000000010001 7
b10100000000001010000011000100000000101 8
b1000100000000100 9
b1010 9!
b101000000000000000000000000000000000000011000100000000101 :
b1 :!
b1010 <
1<!
b1000 >
b101 >!
b1100 ?
b1100 @
b1000001000000110110011 A
b10 B
b100000000000001000001000000110110011000000000000000000000000000011001 D
b1100 F
b10 G
b101 N
b10 O
b101 R
b1000000000000000000000000000000000000000000000000000000000000000000000000000000000000000000000001010000000000101000101000100000000101 U
b101 W
b10100000000000100010011 Y
b101 ^
b10 _
b10 `
b10100000000000000000000 a
b100000000100 b
1g
b1010 l
b1010 m
0n
b101000000000000000000000000000000000000011000100000000101 v
b1010 x
b1010 z
b1010 |

#40000
0!
0#

#45000
1!
b100 !!
b101 "!
1#
b110001000000001000001000001000110011000000000000000000000000000100001 %
b10000000000000000000000000000000000000000000000000000000000000000000000000000000000000000000000000000000000100010000111000000000000101 &
b101000000000000000000000000000000000000011000100000000101 '
b1000100000000100 (
b1001 *
b101000000000000000000000000000000000000011000100000000101 -!
b1010 .!
b1000 3!
b10 4!
b100000000000001000001000000110110011000000000000000000000000000011001 7
b1000000000000000000000000000000000000000000000000000000000000000000000000000000000000000000000001010000000000101000101000100000000101 8
b101000000000000000000000000000000000000011000100000000101 9
b101 9!
b10100000000000000000000000000000000000101000100000000101 :
b10 :!
b1001 <
b1 =!
b1100 >
b10 >!
b10000 ?
b10000 @
b1000000001000001000001000110011 A
b11 B
b110001000000001000001000001000110011000000000000000000000000000100001 D
b10000 F
b11 G
b1 M
b10 N
b11 O
b0 R
b100000000000010 S
b10000000000000000000000000000000000000000000000000000000000000000000000000000000000000000000000000000000000100010000111000000000000101 U
b1 V
b10 W
b1000001000000110110011 Y
b110011 Z
b110011 ]
b10 ^
b11 _
b100000000010 `
b1000001000000000000000 a
b1000000000000010 b
b1010 e
b1 f
b101 l
b101 m
b10100000000000000000000000000000000000101000100000000101 v
b101 x
b101 z
b101 |

#50000
0!
0#

#55000
1!
b1000 !!
b0 "!
1#
b1000000001111111100000000001010010011000000000000000000000000000101001 %
b11000000000000000000000000000000101000000000000000000000000000000000000000000000000000000000000000000000000100010001001000000000010101 &
b10100000000000000000000000000000000000101000100000000101 '
b101000000000000000000000000000000000000011000100000000101 (
b1000 *
b10100000000000000000000000000000000000101000100000000101 -!
b101 .!
b100 3!
b1 4
b1 4!
b1010 5
16
b110001000000001000001000001000110011000000000000000000000000000100001 7
b10000000000000000000000000000000000000000000000000000000000000000000000000000000000000000000000000000000000100010000111000000000000101 8
b1 8!
b10100000000000000000000000000000000000101000100000000101 9
b10 9!
b111100000000000000000000000000000101000111000000000000101 :
b11 :!
b1000 <
b10000 >
b10100 ?
b10100 @
b1111111100000000001010010011 A
b100 B
b1000000001111111100000000001010010011000000000000000000000000000101001 D
b10100 F
b100 G
b1 J
b1010 K
1L
b100 O
b1010 P
b100000000001010 S
b11000000000000000000000000000000101000000000000000000000000000000000000000000000000000000000000000000000000100010001001000000000010101 U
b1000000001000001000001000110011 Y
b100000 \
b10000000010 ^
b10000000100 _
b10000000100 `
b1000000001000001000000000000000 a
b1000010000000010 b
b101 e
b10 f
b1010 h
b1 i
1j
b1010 k
b101 l
b1111 m
0n
b1010 o
b101 p
b1 q
b10 r
b111100000000000000000000000000000101000111000000000000101 v
b1 w
b10 x
b1010 y
b101 z
b101 |
b1010 }
b101 ~

#60000
0!
0#

#65000
1!
b1100 !!
1#
b1010000000000111100000000001100010011000000000000000000000000000110001 %
b100000000000000000000000000000000000000000000000000000000000000000000000000000000000000000000111111110000000011111001011000100000000101 &
b111100000000000000000000000000000101000111000000000000101 '
b10100000000000000000000000000000000000101000100000000101 (
b1100 *
b111100000000000000000000000000000000000111000000000000101 -!
b1111 .!
b101 /!
b1100 3!
b10 4
b11 4!
b101 5
b1000000001111111100000000001010010011000000000000000000000000000101001 7
b11000000000000000000000000000000101000000000000000000000000000000000000000000000000000000000000000000000000100010001001000000000010101 8
b111100000000000000000000000000000000000111000000000000101 9
b10100000000000000000000000000000101001001000000000010101 :
b100 :!
b1100 <
b0 =!
b10100 >
b11111 >!
b11000 ?
b11000 @
b111100000000001100010011 A
b101 B
b1010000000000111100000000001100010011000000000000000000000000000110001 D
b11000 F
b101 G
b10 J
b101 K
b0 M
b11111 N
b101 O
b0 P
b11111111 R
b100010000000010 S
b100000000000000000000000000000000000000000000000000000000000000000000000000000000000000000000111111110000000011111001011000100000000101 U
b0 V
b11111 W
b1111111100000000001010010011 Y
b10011 Z
b111 \
b10011 ]
b11111111 ^
b11100101 _
b100011100100 `
b1111111100000000000000000000 a
b100011111110 b
b1111 e
b11 f
b101 h
b10 i
b101 m
b0 q
b1 r
b10100000000000000000000000000000101001001000000000010101 v
b1 {

#70000
0!
0#

#75000
1!
b10000 !!
b11111111 "!
1#
b1100000000000011000100111001110110011000000000000000000000000000111001 %
b101000000000000000000000000000000000000000000000000000000000000000000000000000000000000000000000011110000000001111001101000100000000101 &
b10100000000000000000000000000000101001001000000000010101 '
b111100000000000000000000000000000000000111000000000000101 (
b100001111 *
b10100000000000000000000000000000000001001000000000010101 -!
b101 .!
b100 3!
b11 4
b1 4!
b1111 5
b1010000000000111100000000001100010011000000000000000000000000000110001 7
b100000000000000000000000000000000000000000000000000000000000000000000000000000000000000000000111111110000000011111001011000100000000101 8
b0 8!
b10100000000000000000000000000000000001001000000000010101 9
b11111 9!
b1111111100000000000000000000000000000000001011000100000000101 :
b101 :!
b100001111 <
b11000 >
b1111 >!
b11100 ?
b11100 @
b11000100111001110110011 A
b110 B
b1100000000000011000100111001110110011000000000000000000000000000111001 D
b11100 F
b110 G
b11 J
b1111 K
b1111 N
b110 O
b1111 R
b100010000000010 S
b101000000000000000000000000000000000000000000000000000000000000000000000000000000000000000000000011110000000001111001101000100000000101 U
b1111 W
b111100000000001100010011 Y
b0 \
b1111 ^
b110 _
b110 `
b111100000000000000000000 a
b100000001110 b
b101 e
b100 f
b1111 h
b11 i
b0 k
b11111111 l
b11111111 m
b0 o
b0 p
b0 r
b1111111100000000000000000000000000000000001011000100000000101 v
b0 w
b11111 x
b0 y
b11111111 z
b0 {
b11111 |
b0 }
b0 ~

#80000
0!
0#

#85000
1!
b10100 !!
b1111 "!
1#
b1110000000000011000110110010000110011000000000000000000000000001000001 %
b110000000000000000000000000000000010100000000000000000000000000000000000000000000000000000000000000001110010000110001111000000010010101 &
b1111111100000000000000000000000000000000001011000100000000101 '
b10100000000000000000000000000000000001001000000000010101 (
b100011 *
b1111111100000000000000000000000000000000001011000100000000101 -!
b11111111 .!
b0 /!
b11111100 3!
b100 4
b11 4!
b101 5
b1100000000000011000100111001110110011000000000000000000000000000111001 7
b101000000000000000000000000000000000000000000000000000000000000000000000000000000000000000000000011110000000001111001101000100000000101 8
b1111111100000000000000000000000000000000001011000100000000101 9
b1111 9!
b111100000000000000000000000000000000001101000100000000101 :
b110 :!
b100011 <
b100 =!
b11100 >
b110 >!
b100000 ?
b100000 @
b11000110110010000110011 A
b111 B
b1110000000000011000110110010000110011000000000000000000000000001000001 D
b100000 F
b111 G
b100 J
b101 K
b100 M
b110 N
b111 O
b101 P
b0 R
b100000001001010 S
b111 T
b110000000000000000000000000000000010100000000000000000000000000000000000000000000000000000000000000001110010000110001111000000010010101 U
b100 V
b110 W
b11000100111001110110011 Y
b110011 Z
b111 [
b110011 ]
b110 ^
b111 _
b100000000110 `
b11000100111000000000000 a
b100111000000000110 b
b11111111 e
b101 f
b101 h
b100 i
b1111 l
b1111 m
b111100000000000000000000000000000000001101000100000000101 v
b1111 x
b1111 z
b1111 |

#90000
0!
0#

#95000
1!
b11000 !!
b0 "!
1#
b111 #!
b10000000000000011000101100010010110011000000000000000000000000001001001 %
b111000000000000000000000000000000000000000000000000000000000000000000000000000000000000000000000000001100011000110010001000000010000101 &
b111100000000000000000000000000000000001101000100000000101 '
b1111111100000000000000000000000000000000001011000100000000101 (
b11000 *
b111100000000000000000000000000000000001101000100000000101 -!
b1111 .!
b1100 3!
b101 4
b11111111 5
b1110000000000011000110110010000110011000000000000000000000000001000001 7
b110000000000000000000000000000000010100000000000000000000000000000000000000000000000000000000000000001110010000110001111000000010010101 8
b100 8!
b111100000000000000000000000000000000001101000100000000101 9
b110 9!
b10100000000000000000000000000001111001111000000010010101 :
b111 :!
b11000 <
b110 =!
b100000 >
b100100 ?
b100100 @
b11000101100010010110011 A
b1000 B
b10000000000000011000101100010010110011000000000000000000000000001001001 D
b100100 F
b1000 G
b101 J
b11111111 K
b110 M
b1000 O
b0 P
b100000001000010 S
b110 T
b111000000000000000000000000000000000000000000000000000000000000000000000000000000000000000000000000001100011000110010001000000010000101 U
b110 V
b11000110110010000110011 Y
b110 [
b1000 _
b1000 `
b11000110110000000000000 a
b110110000000000110 b
b1111 e
b110 f
b11111111 h
b101 i
b101 k
b1111 l
b101 m
0n
b101 o
b1111 p
b10 r
b111 t
b10100000000000000000000000000001111001111000000010010101 v
b100 w
b110 x
b101 y
b1111 z
b1001 {
b1111 |
b101 }
b1111 ~

#100000
0!
0#

#105000
1!
b11100 !!
1#
b110 #!
b10010000000000010000000000010100010011000000000000000000000000001010001 %
b1000000000000000000000000000001111111100000000000000000000000000001111000000000000000000000000000000001000010100110010011000000001010101 &
b10100000000000000000000000000001111001111000000010010101 '
b111100000000000000000000000000000000001101000100000000101 (
b11100 *
b10100000000000000000000000000000000001111000000010010101 -!
b101 .!
b1111 /!
b100 3!
b110 4
b1 4!
b1111 5
b10000000000000011000101100010010110011000000000000000000000000001001001 7
b111000000000000000000000000000000000000000000000000000000000000000000000000000000000000000000000000001100011000110010001000000010000101 8
b110 8!
b10100000000000000000000000000000000001111000000010010101 9
b111100000000000000000000000000001111010001000000010000101 :
b1000 :!
b11100 <
b101 =!
b100100 >
b101000 ?
b101000 @
b10000000000010100010011 A
b1001 B
b10010000000000010000000000010100010011000000000000000000000000001010001 D
b101000 F
b1001 G
b110 J
b1111 K
b101 M
b1001 O
b11111111 P
b1111 Q
b100000000101010 S
b100 T
b1000000000000000000000000000001111111100000000000000000000000000001111000000000000000000000000000000001000010100110010011000000001010101 U
b101 V
b11000101100010010110011 Y
b100 [
b1001 _
b100000001000 `
b11000101100000000000000 a
b101100000000000110 b
b101 e
b111 f
b1111 h
b110 i
b1111 k
b1111 m
b1111 o
b1 q
b1 r
b110 t
b111100000000000000000000000000001111010001000000010000101 v
b110 w
b1111 y
b1000 {
b1111 }

#110000
0!
0#

#115000
1!
b100000 !!
1#
b100 #!
b10100000000000001001010001010110010011000000000000000000000000001011001 %
b1001000000000000000000000000000000000000000000000000000000000000000101000000000000000000000000000001000000000000100010101000100000000101 &
b111100000000000000000000000000001111010001000000010000101 '
b10100000000000000000000000000000000001111000000010010101 (
b100000 *
b111100000000000000000000000000000000010001000000010000101 -!
b1111 .!
b1100 3!
b111 4
b11 4!
b101 5
b10010000000000010000000000010100010011000000000000000000000000001010001 7
b1000000000000000000000000000001111111100000000000000000000000000001111000000000000000000000000000000001000010100110010011000000001010101 8
b101 8!
b111100000000000000000000000000000000010001000000010000101 9
b1111000000000000000000000000000000001111010011000000001010101 :
b1001 :!
b100000 <
b0 =!
b101000 >
b100 >!
b101100 ?
b101100 @
b1001010001010110010011 A
b1010 B
b10100000000000001001010001010110010011000000000000000000000000001011001 D
b101100 F
b1010 G
b111 J
b101 K
b0 M
b100 N
b1010 O
b0 P
b101 Q
b100 R
b100010000000010 S
b0 T
b1001000000000000000000000000000000000000000000000000000000000000000101000000000000000000000000000001000000000000100010101000100000000101 U
b0 V
b100 W
b10000000000010100010011 Y
b10011 Z
b0 [
b10011 ]
b100 ^
b1010 _
b1010 `
b10000000000000000000000 a
b100 b
b1111 e
b1000 f
b101 h
b111 i
b11111111 k
b11110000 m
0n
b11111111 o
b0 q
b0 r
b100 t
b1111000000000000000000000000000000001111010011000000001010101 v
b101 w
b11111111 y
b101 {
b11111111 }

#120000
0!
0#

#125000
1!
b100100 !!
b100 "!
1#
b0 #!
b10110000000000000101011101011000010011000000000000000000000000001100001 %
b1010000000000000000000000000000000000000000000000000000000000000000101000000000000000000000000000000100010101000010010111000100000100101 &
b1111000000000000000000000000000000001111010011000000001010101 '
b111100000000000000000000000000000000010001000000010000101 (
b101000 *
b1111000000000000000000000000000000000000010011000000001010101 -!
b11110000 .!
b11110000 3!
b1000 4
b0 4!
b1111 5
b10100000000000001001010001010110010011000000000000000000000000001011001 7
b1001000000000000000000000000000000000000000000000000000000000000000101000000000000000000000000000001000000000000100010101000100000000101 8
b0 8!
b1111000000000000000000000000000000000000010011000000001010101 9
b100 9!
b10000000000000000000000000000000101010101000100000000101 :
b1010 :!
b101000 <
b1010 =!
b101100 >
b10 >!
b110000 ?
b110000 @
b101011101011000010011 A
b1011 B
b10110000000000000101011101011000010011000000000000000000000000001100001 D
b110000 F
b1011 G
b1000 J
b1111 K
b1010 M
b10 N
b1011 O
b10 R
b100010000010010 S
b1 T
b1010000000000000000000000000000000000000000000000000000000000000000101000000000000000000000000000000100010101000010010111000100000100101 U
b1010 V
b10 W
b1001010001010110010011 Y
b1 [
b10 ^
b1011 _
b100000001010 `
b1001010001000000000000 a
b1010001000000000010 b
b11110000 e
b1001 f
b1111 h
b1000 i
b0 k
b100 l
b100 m
b0 o
b101 p
b0 t
b10000000000000000000000000000000101010101000100000000101 v
b0 w
b100 x
b0 y
b100 z
b0 {
b100 |
b0 }
b101 ~

#130000
0!
0#

#135000
1!
b101000 !!
b10 "!
1#
b1 #!
b11000000000110010000000000011010010011000000000000000000000000001101001 %
b1011000000000000000000000000000000000000000000000000000000000000001010000000000000000000000000000000011010101100001011001000100001100101 &
b10000000000000000000000000000000101010101000100000000101 '
b1111000000000000000000000000000000000000010011000000001010101 (
b101010 *
b10000000000000000000000000000000000010101000100000000101 -!
b100 .!
b101 /!
b100 3!
b1001 4
b11110000 5
b10110000000000000101011101011000010011000000000000000000000000001100001 7
b1010000000000000000000000000000000000000000000000000000000000000000101000000000000000000000000000000100010101000010010111000100000100101 8
b1010 8!
b10000000000000000000000000000000000010101000100000000101 9
b10 9!
b1000000000000000000000000000000000101010111000100000100101 :
b1011 :!
b101010 <
b1011 =!
b110000 >
b1 >!
b110100 ?
b110100 @
b110010000000000011010010011 A
b1100 B
b11000000000110010000000000011010010011000000000000000000000000001101001 D
b110100 F
b1100 G
b1001 J
b11110000 K
b1011 M
b1 N
b1100 O
b1010 Q
b1 R
b100010000110010 S
b101 T
b1011000000000000000000000000000000000000000000000000000000000000001010000000000000000000000000000000011010101100001011001000100001100101 U
b1011 V
b1 W
b101011101011000010011 Y
b101 [
b1 ^
b1100 _
b1100 `
b101011101000000000000 a
b1011101100000000000 b
b100 e
b1010 f
b11110000 h
b1001 i
b100 k
b10 l
b10000 m
0n
b100 o
b10 q
b1 t
b1000000000000000000000000000000000101010111000100000100101 v
b1010 w
b10 x
b100 y
b10 z
b10 {
b10 |
b100 }

#140000
0!
0#

#145000
1!
b101100 !!
b1 "!
1#
b101 #!
b11010000000000110100000010000000100011000000000000000000000000001110001 %
b1100000000000000000000000000000000000000000000000000000000000000000101000000000000000000000000011001000000000000100011011000100000000101 &
b1000000000000000000000000000000000101010111000100000100101 '
b10000000000000000000000000000000000010101000100000000101 (
b101101 *
b1000000000000000000000000000000000000010111000100000100101 -!
b10000 .!
b10000 3!
b1010 4
b100 5
b11000000000110010000000000011010010011000000000000000000000000001101001 7
b1011000000000000000000000000000000000000000000000000000000000000001010000000000000000000000000000000011010101100001011001000100001100101 8
b1011 8!
b1000000000000000000000000000000000000010111000100000100101 9
b1 9!
b100000000000000000000000000000001010011001000100001100101 :
b1100 :!
b101101 <
b0 =!
b110100 >
b100 >!
b111000 ?
b111000 @
b110100000010000000100011 A
b1101 B
b11010000000000110100000010000000100011000000000000000000000000001110001 D
b111000 F
b1101 G
b1010 J
b100 K
b0 M
b100 N
b1101 O
b101 Q
b1100100 R
b100010000000010 S
b0 T
b1100000000000000000000000000000000000000000000000000000000000000000101000000000000000000000000011001000000000000100011011000100000000101 U
b0 V
b100 W
b110010000000000011010010011 Y
b0 [
b11 \
b1100100 ^
b1101101 _
b100001101100 `
b110010000000000000000000000 a
b1100100 b
b10000 e
b1011 f
b100 h
b1010 i
b10000 k
b1 l
b1000 m
b10000 o
b1010 p
b10 q
b101 t
b100000000000000000000000000000001010011001000100001100101 v
b1011 w
b1 x
b10000 y
b1 z
b110 {
b1 |
b10000 }
b1010 ~

#150000
0!
0#

