waveforms/riscv_single_cycle_core.vcd
$date
   Wed Jan 14 21:23:48 2026
$end

$version
  2025.1.0
  $dumpfile ("riscv_single_cycle_core.vcd") 
$end

$timescale
  1ps
$end

$scope module tb_single_cycle $end
$var reg 1 ! clk $end
$var reg 1 " reset $end
$scope module dut $end
$var wire 1 # clk $end
$var wire 1 $ reset $end
$var reg 32 % pc [31:0] $end
$var reg 32 & pc_next [31:0] $end
$var reg 1 ' pc_en $end
$var reg 10 ( imem_addr [9:0] $end
$var reg 32 ) instruction [31:0] $end
$var reg 5 * rs1_addr [4:0] $end
$var reg 5 + rs2_addr [4:0] $end
$var reg 5 , rd_addr [4:0] $end
$var reg 32 - immediate [31:0] $end
$var reg 15 . ctrl $end
$var reg 32 / rs1_data [31:0] $end
$var reg 32 0 rs2_data [31:0] $end
$var reg 32 1 write_data [31:0] $end
$var reg 32 2 alu_a [31:0] $end
$var reg 32 3 alu_b [31:0] $end
$var reg 32 4 alu_result [31:0] $end
$var reg 1 5 alu_zero $end
$var reg 1 6 branch_taken $end
$var reg 32 7 branch_target [31:0] $end
$var reg 1 8 is_jump $end
$var reg 3 9 funct3_branch $end
$var reg 7 : opcode $end
$var reg 32 ; dmem_addr [31:0] $end
$var reg 32 < dmem_wdata [31:0] $end
$var reg 32 = dmem_rdata [31:0] $end
$var reg 32 > pc_plus4 [31:0] $end
$scope module pc_inst $end
$var wire 1 # clk $end
$var wire 1 $ reset $end
$var wire 1 ? pc_en $end
$var wire 32 @ pc_next [31:0] $end
$var reg 32 % pc [31:0] $end
$upscope $end
$scope module imem_inst $end
$var wire 10 A address [9:0] $end
$var reg 32 ) instruction [31:0] $end
$upscope $end
$scope module imm_gen_inst $end
$var wire 32 B instruction [31:0] $end
$var reg 32 - immediate [31:0] $end
$var reg 7 C opcode [6:0] $end
$var reg 32 D i_imm [31:0] $end
$var reg 32 E s_imm [31:0] $end
$var reg 32 F b_imm [31:0] $end
$var reg 32 G u_imm [31:0] $end
$var reg 32 H j_imm [31:0] $end
$upscope $end
$scope module decoder_inst $end
$var wire 32 I instruction [31:0] $end
$var reg 15 . ctrl $end
$var reg 7 J opcode $end
$var reg 3 K funct3_bits [2:0] $end
$var reg 7 L funct7_bits [6:0] $end
$upscope $end
$scope module regfile_inst $end
$var wire 1 # clk $end
$var wire 1 $ reset $end
$var wire 5 M rs1_addr [4:0] $end
$var wire 5 N rs2_addr [4:0] $end
$var wire 5 O rd [4:0] $end
$var wire 32 P write_data [31:0] $end
$var wire 1 Q wr_en $end
$var reg 32 / rs1_data [31:0] $end
$var reg 32 0 rs2_data [31:0] $end
$scope begin Block21_4 $end
$var reg 32 R i [31:0] $end
$upscope $end
$upscope $end
$scope module alu_inst $end
$var wire 32 S a [31:0] $end
$var wire 32 T b [31:0] $end
$var wire 4 U op $end
$var reg 1 5 zero $end
$var reg 32 4 result [31:0] $end
$var reg 5 V shift_amt [4:0] $end
$upscope $end
$scope module branch_unit_inst $end
$var wire 32 W rs1_data [31:0] $end
$var wire 32 X rs2_data [31:0] $end
$var wire 32 Y pc [31:0] $end
$var wire 32 Z imm [31:0] $end
$var wire 3 [ funct3 $end
$var wire 7 \ opcode $end
$var reg 1 6 branch_taken $end
$var reg 32 7 branch_target [31:0] $end
$var reg 1 8 is_jump $end
$var reg 1 ] condition_met $end
$var reg 1 ^ is_branch $end
$var reg 1 _ is_jal $end
$var reg 1 ` is_jalr $end
$upscope $end
$scope module dmem_inst $end
$var wire 1 # clk $end
$var wire 32 a addr [31:0] $end
$var wire 32 b wdata [31:0] $end
$var wire 1 c wr_en $end
$var wire 1 d rd_en $end
$var wire 3 e mem_op $end
$var reg 32 = rdata [31:0] $end
$var reg 32 f word_addr [31:0] $end
$var reg 2 g byte_offset [1:0] $end
$var reg 32 h word [31:0] $end
$upscope $end
$upscope $end
$scope task load_program $end
$upscope $end
$scope task monitor_regfile $end
$upscope $end
$scope task verify_register $end
$upscope $end
$scope task verify_memory $end
$upscope $end
$upscope $end
$enddefinitions $end

#0
$dumpvars
0!
1"
0#
1$
bx %
bx &
1'
bx (
bx )
bx *
bx +
bx ,
b0 -
b10 .
bx /
bx 0
bx 1
bx 2
bx 3
bx 4
x5
x6
bx 7
x8
bx 9
bx :
bx ;
bx <
b0 =
bx >
1?
bx @
bx A
bx B
bx C
bx D
bx E
bx0 F
bx000000000000 G
bx0 H
bx I
bx J
bx K
bx L
bx M
bx N
bx O
bx P
0Q
b0 R
bx S
bx T
b0 U
bx V
bx W
bx X
bx Y
b0 Z
bx [
bx \
0]
x^
x_
x`
bx a
bx b
0c
0d
b10 e
bx00 f
bx g
b0 h
$end

#5000
1!
1#
b0 %
b100 &
b0 (
b10100000000000010010011 )
b0 *
b101 +
b1 ,
b101 -
b100010000000010 .
b0 /
b0 0
b101 1
b0 2
b101 3
b101 4
05
06
b101 7
08
b0 9
b10011 :
b101 ;
b0 <
b100 >
b100 @
b0 A
b10100000000000010010011 B
b10011 C
b101 D
b1 E
b100000000000 F
b10100000000000000000000 G
b100000000100 H
b10100000000000010010011 I
b10011 J
b0 K
b0 L
b0 M
b101 N
b1 O
b101 P
1Q
b100000 R
b0 S
b101 T
b101 V
b0 W
b0 X
b0 Y
b101 Z
b0 [
b10011 \
0^
0_
0`
b101 a
b0 b
b100 f
b1 g

#10000
0!
0#

#15000
1!
0"
1#
0$
b100 %
b1000 &
b1 (
b1100000000000100010011 )
b11 +
b10 ,
b11 -
b11 1
b11 3
b11 4
b111 7
b11 ;
b1000 >
b1000 @
b1 A
b1100000000000100010011 B
b11 D
b10 E
b10 F
b1100000000000000000000 G
b100000000010 H
b1100000000000100010011 I
b11 N
b10 O
b11 P
b11 T
b11 V
b100 Y
b11 Z
b11 a
b0 f
b11 g

#20000
0!
0#

#25000
1!
1#
b1000 %
b1100 &
b10 (
b1000001000000110110011 )
b1 *
b10 +
b11 ,
b0 -
b100000000000010 .
b101 /
b11 0
b1000 1
b101 2
b1000 4
b1000 7
b110011 :
b1000 ;
b11 <
b1100 >
b1100 @
b10 A
b1000001000000110110011 B
b110011 C
b10 D
b11 E
b100000000010 F
b1000001000000000000000 G
b1000000000000010 H
b1000001000000110110011 I
b110011 J
b1 M
b10 N
b11 O
b1000 P
b101 S
b101 W
b11 X
b1000 Y
b0 Z
b110011 \
b1000 a
b11 b
b1000 f
b0 g

#30000
0!
0#

#35000
1!
1#
b1100 %
b10000 &
b11 (
b1000000001000001000001000110011 )
b100 ,
b100000000001010 .
b10 1
b10 4
b1100 7
b10 ;
b10000 >
b10000 @
b11 A
b1000000001000001000001000110011 B
b10000000010 D
b10000000100 E
b10000000100 F
b1000000001000001000000000000000 G
b1000010000000010 H
b1000000001000001000001000110011 I
b100000 L
b100 O
b10 P
b1 U
b1100 Y
b10 a
b0 f
b10 g

#40000
0!
0#

#45000
1!
1#
b10000 %
b10100 &
b100 (
b1100000010000000100011 )
b0 *
b11 +
b0 ,
b1010000000010 .
b0 /
b1000 0
b0 1
b0 2
b0 3
b0 4
15
b10000 7
b10 9
b100011 :
b0 ;
b1000 <
b10100 >
b10100 @
b100 A
b1100000010000000100011 B
b100011 C
b11 D
b0 E
b0 F
b1100000010000000000000 G
b10100000000010 H
b1100000010000000100011 I
b100011 J
b10 K
b0 L
b0 M
b11 N
b0 O
b0 P
0Q
b0 S
b0 T
b0 U
b0 V
b0 W
b1000 X
b10000 Y
b10 [
b100011 \
b0 a
b1000 b
1c
b0 g

#50000
0!
0#

#55000
1!
1#
b10100 %
b11000 &
b101 (
b10001010000011 )
b0 +
b101 ,
b110110000000010 .
b0 0
b1000 1
b10100 7
b11 :
b0 <
b1000 =
b11000 >
b11000 @
b101 A
b10001010000011 B
b11 C
b0 D
b101 E
b100000000100 F
b10000000000000 G
b10000000000000 H
b10001010000011 I
b11 J
b0 N
b101 O
b1000 P
1Q
b0 X
b10100 Y
b11 \
b0 b
0c
1d
b1000 h

#60000
0!
0#

#65000
1!
1#
b11000 %
b100000 &
b110 (
b10100011000010001100011 )
b11 *
b101 +
b1000 ,
b1000 -
b1000000010 .
b1000 /
b1000 0
b10000 1
b1000 2
b1000 3
b10000 4
05
16
b100000 7
b0 9
b1100011 :
b10000 ;
b1000 <
b0 =
b11100 >
b100000 @
b110 A
b10100011000010001100011 B
b1100011 C
b101 D
b1000 E
b1000 F
b10100011000000000000000 G
b11000100000000100 H
b10100011000010001100011 I
b1100011 J
b0 K
b11 M
b101 N
b1000 O
b10000 P
0Q
b1000 S
b1000 T
b1000 V
b1000 W
b1000 X
b11000 Y
b1000 Z
b0 [
b1100011 \
1]
1^
b10000 a
b1000 b
0d
b10000 f
b0 h

#70000
0!
0#

#75000
1!
1#
b100000 %
b100100 &
b1000 (
b10101000000000001110010011 )
b0 *
b1010 +
b111 ,
b101010 -
b100010000000010 .
b0 /
b0 0
b101010 1
b0 2
b101010 3
b101010 4
06
b1001010 7
b10011 :
b101010 ;
b0 <
b100100 >
b100100 @
b1000 A
b10101000000000001110010011 B
b10011 C
b101010 D
b100111 E
b100000100110 F
b10101000000000000000000000 G
b101010 H
b10101000000000001110010011 I
b10011 J
b1 L
b0 M
b1010 N
b111 O
b101010 P
1Q
b0 S
b101010 T
b1010 V
b0 W
b0 X
b100000 Y
b101010 Z
b10011 \
0]
0^
b101010 a
b0 b
b101000 f
b10 g

#80000
0!
0#

#85000
1!
1#
b100100 %
b101000 &
b1001 (
b10010001101000101010000110111 )
b1000 *
b11 +
b1000 ,
b10010001101000101000000000000 -
b100010001011010 .
b10010001101000101000000000000 /
b1000 0
b10010001101000101000000000000 1
b10010001101000101000000000000 2
b10010001101000101000000000000 3
b10010001101000101000000000000 4
b10010001101000101000000100100 7
b101 9
b110111 :
b10010001101000101000000000000 ;
b1000 <
b101000 >
b101000 @
b1001 A
b10010001101000101010000110111 B
b110111 C
b100100011 D
b100101000 E
b100101000 F
b10010001101000101000000000000 G
b1000101100100100010 H
b10010001101000101010000110111 I
b110111 J
b101 K
b1001 L
b1000 M
b11 N
b1000 O
b10010001101000101000000000000 P
b10010001101000101000000000000 S
b10010001101000101000000000000 T
b1011 U
b0 V
b10010001101000101000000000000 W
b1000 X
b100100 Y
b10010001101000101000000000000 Z
b101 [
b110111 \
b10010001101000101000000000000 a
b1000 b
b10010001101000101000000000000 f
b0 g

#90000
0!
0#

#95000
1!
1#
b101000 %
b101100 &
b1010 (
b1000000000000010010010111 )
b0 *
b10000 +
b1001 ,
b1000000000000000000000000 -
b100010000000010 .
b0 /
b0 0
b1000000000000000000101000 1
b101000 2
b1000000000000000000000000 3
b1000000000000000000101000 4
b1000000000000000000101000 7
b0 9
b10111 :
b1000000000000000000101000 ;
b0 <
b101100 >
b101100 @
b1010 A
b1000000000000010010010111 B
b10111 C
b10000 D
b1001 E
b100000001000 F
b1000000000000000000000000 G
b10000 H
b1000000000000010010010111 I
b10111 J
b0 K
b0 L
b0 M
b10000 N
b1001 O
b1000000000000000000101000 P
b101000 S
b1000000000000000000000000 T
b0 U
b0 W
b0 X
b101000 Y
b1000000000000000000000000 Z
b0 [
b10111 \
b1000000000000000000101000 a
b0 b
b1000000000000000000101000 f

#100000
0!
0#

#105000
1!
1#
b101100 %
b110100 &
b1011 (
b100000000000010101101111 )
b1000 +
b1010 ,
b1000 -
b100010100000010 .
b10010001101000101000000000000 0
b110000 1
b0 2
b1000 3
b1000 4
16
b110100 7
18
b1101111 :
b1000 ;
b10010001101000101000000000000 <
b110000 >
b110100 @
b1011 A
b100000000000010101101111 B
b1101111 C
b1000 D
b1010 E
b1010 F
b100000000000000000000000 G
b1000 H
b100000000000010101101111 I
b1101111 J
b1000 N
b1010 O
b110000 P
b0 S
b1000 T
b1000 V
b10010001101000101000000000000 X
b101100 Y
b1000 Z
b1101111 \
1_
b1000 a
b10010001101000101000000000000 b
b1000 f

#110000
0!
0#

#115000
1!
1#
b110100 %
b111000 &
b1101 (
b100110100000000011000010011 )
b1101 +
b1100 ,
b1001101 -
b100010000000010 .
b0 0
b1001101 1
b1001101 3
b1001101 4
06
b10000001 7
08
b10011 :
b1001101 ;
b0 <
b111000 >
b111000 @
b1101 A
b100110100000000011000010011 B
b10011 C
b1001101 D
b1001100 E
b1001100 F
b100110100000000000000000000 G
b100001001100 H
b100110100000000011000010011 I
b10011 J
b10 L
b1101 N
b1100 O
b1001101 P
b1001101 T
b1101 V
b0 X
b110100 Y
b1001101 Z
b10011 \
0_
b1001101 a
b0 b
b1001100 f
b1 g

#120000
0!
0#

#125000
1!
1#
b111000 %
b111100 &
b1110 (
b10011 )
b0 +
b0 ,
b0 -
b100010000000010 .
b0 1
b0 3
b0 4
15
b111000 7
b0 ;
b111100 >
b111100 @
b1110 A
b10011 B
b0 D
b0 E
b0 F
b0 G
b0 H
b10011 I
b0 L
b0 N
b0 O
b0 P
b0 T
b0 V
b111000 Y
b0 Z
b0 a
b0 f
b0 g

#130000
0!
0#

#135000
1!
1#
b111100 %
b1000000 &
b1111 (
b111100 7
b1000000 >
b1000000 @
b1111 A
b111100 Y

#140000
0!
0#

#145000
1!
1#
b1000000 %
b1000100 &
b10000 (
b1000000 7
b1000100 >
b1000100 @
b10000 A
b1000000 Y

#150000
0!
0#

#155000
1!
1#
b1000100 %
b1001000 &
b10001 (
b1000100 7
b1001000 >
b1001000 @
b10001 A
b1000100 Y

#160000
0!
0#

#165000
1!
1#
b1001000 %
b1001100 &
b10010 (
b1001000 7
b1001100 >
b1001100 @
b10010 A
b1001000 Y

#170000
0!
0#

#175000
1!
1#
b1001100 %
b1010000 &
b10011 (
b1001100 7
b1010000 >
b1010000 @
b10011 A
b1001100 Y

#180000
0!
0#

#185000
1!
1#
b1010000 %
b1010100 &
b10100 (
b1010000 7
b1010100 >
b1010100 @
b10100 A
b1010000 Y

#190000
0!
0#

#195000
1!
1#
b1010100 %
b1011000 &
b10101 (
b1010100 7
b1011000 >
b1011000 @
b10101 A
b1010100 Y

#200000
0!
0#

#205000
1!
1#
b1011000 %
b1011100 &
b10110 (
b1011000 7
b1011100 >
b1011100 @
b10110 A
b1011000 Y

#210000
0!
0#

#215000
1!
1#
b1011100 %
b1100000 &
b10111 (
b1011100 7
b1100000 >
b1100000 @
b10111 A
b1011100 Y

#220000
0!
0#

#225000
1!
1#
b1100000 %
b1100100 &
b11000 (
b1100000 7
b1100100 >
b1100100 @
b11000 A
b1100000 Y

#230000
0!
0#

#235000
1!
1#
b1100100 %
b1101000 &
b11001 (
b1100100 7
b1101000 >
b1101000 @
b11001 A
b1100100 Y

#240000
0!
0#

#245000
1!
1#
b1101000 %
b1101100 &
b11010 (
b1101000 7
b1101100 >
b1101100 @
b11010 A
b1101000 Y

#250000
0!
0#

#255000
1!
1#
b1101100 %
b1110000 &
b11011 (
b1101100 7
b1110000 >
b1110000 @
b11011 A
b1101100 Y

#260000
0!
0#

#265000
1!
1#
b1110000 %
b1110100 &
b11100 (
b1110000 7
b1110100 >
b1110100 @
b11100 A
b1110000 Y

#270000
0!
0#

#275000
1!
1#
b1110100 %
b1111000 &
b11101 (
b1110100 7
b1111000 >
b1111000 @
b11101 A
b1110100 Y

#280000
0!
0#

#285000
1!
1#
b1111000 %
b1111100 &
b11110 (
b1111000 7
b1111100 >
b1111100 @
b11110 A
b1111000 Y

#290000
0!
0#

#295000
1!
1#
b1111100 %
b10000000 &
b11111 (
b1111100 7
b10000000 >
b10000000 @
b11111 A
b1111100 Y

#300000
0!
0#

#305000
1!
1#
b10000000 %
b10000100 &
b100000 (
b10000000 7
b10000100 >
b10000100 @
b100000 A
b10000000 Y

#310000
0!
0#

#315000
1!
1#
b10000100 %
b10001000 &
b100001 (
b10000100 7
b10001000 >
b10001000 @
b100001 A
b10000100 Y
