m_extension.vcd
$date
   Sat Jan 17 15:50:10 2026
$end

$version
  2025.1.0
  $dumpfile ("m_extension.vcd") 
$end

$timescale
  1ps
$end

$scope module tb_mtype $end
$var reg 1 ! clk $end
$var reg 1 " reset $end
$var reg 32 # a [31:0] $end
$var reg 32 $ b [31:0] $end
$var reg 5 % op $end
$var reg 32 & result [31:0] $end
$var reg 1 ' zero $end
$var reg 1 ( ready $end
$var reg 32 ) pass_count [31:0] $end
$var reg 32 * fail_count [31:0] $end
$scope module dut $end
$var wire 1 + clk $end
$var wire 1 , reset $end
$var wire 32 - a [31:0] $end
$var wire 32 . b [31:0] $end
$var wire 5 / op $end
$var reg 1 ' zero $end
$var reg 32 & result [31:0] $end
$var reg 1 ( ready $end
$var reg 5 0 shift_amt [4:0] $end
$var reg 64 1 mul_signed [63:0] $end
$var reg 64 2 mul_unsigned [63:0] $end
$var reg 64 3 mul_mixed [63:0] $end
$var reg 1 4 div_start $end
$var reg 1 5 div_is_signed $end
$var reg 1 6 div_is_rem $end
$var reg 32 7 div_result [31:0] $end
$var reg 1 8 div_done $end
$var reg 1 9 div_busy $end
$var reg 1 : is_div_op $end
$var reg 1 ; div_op_last $end
$scope module divider_inst $end
$var wire 1 + clk $end
$var wire 1 , reset $end
$var wire 1 < start $end
$var wire 1 = is_signed $end
$var wire 1 > is_rem $end
$var wire 32 - dividend [31:0] $end
$var wire 32 . divisor [31:0] $end
$var reg 32 7 result [31:0] $end
$var reg 1 8 done $end
$var reg 1 9 busy $end
$var reg 32 ? result_reg [31:0] $end
$var reg 1 @ done_reg $end
$var reg 1 A start_reg $end
$var wire 1 B start_pulse $end
$scope begin Block40_5 $end
$var reg 32 C dividend_s [31:0] $end
$var reg 32 D divisor_s [31:0] $end
$var reg 32 E quot_s [31:0] $end
$var reg 32 F rem_s [31:0] $end
$upscope $end
$upscope $end
$upscope $end
$scope task test_op $end
$upscope $end
$upscope $end
$enddefinitions $end

#0
$dumpvars
0!
1"
b0 #
b0 $
b0 %
b0 &
1'
1(
b0 )
b0 *
0+
1,
b0 -
b0 .
b0 /
b0 0
b0 1
b0 2
b0 3
04
05
06
bx 7
x8
09
0:
x;
0<
0=
0>
bx ?
x@
xA
0B
bx C
bx D
bx E
bx F
$end

#5000
1!
1+
b0 7
08
0;
b0 ?
0@
0A

#10000
0!
0+

#15000
1!
1+

#20000
0!
0+

#25000
1!
0"
1+
0,

#30000
0!
0+

#35000
1!
b1010 #
b101 $
b10000 %
b110010 &
0'
1+
b1010 -
b101 .
b10000 /
b101 0
b110010 1
b110010 2
b110010 3

#40000
0!
0+

#45000
1!
1+

#46000
b1100100 #
b1100100 $
b10011100010000 &
b1 )
b1100100 -
b1100100 .
b100 0
b10011100010000 1
b10011100010000 2
b10011100010000 3

#50000
0!
0+

#55000
1!
1+

#56000
b11111111111111111111111111111011 #
b11 $
b11111111111111111111111111110001 &
b10 )
b11111111111111111111111111111011 -
b11 .
b11 0
b1111111111111111111111111111111111111111111111111111111111110001 1
b1011111111111111111111111111110001 2
b1111111111111111111111111111111111111111111111111111111111110001 3

#60000
0!
0+

#65000
1!
1+

#66000
b11111111111111111111111111111111 #
b11111111111111111111111111111111 $
b1 &
b11 )
b11111111111111111111111111111111 -
b11111111111111111111111111111111 .
b11111 0
b1 1
b1111111111111111111111111111111000000000000000000000000000000001 2
b1111111111111111111111111111111100000000000000000000000000000001 3

#70000
0!
0+

#75000
1!
1+

#76000
b10000000000000000000000000000000 #
b10 $
b0 &
1'
b100 )
b10000000000000000000000000000000 -
b10 .
b10 0
b1111111111111111111111111111111100000000000000000000000000000000 1
b100000000000000000000000000000000 2
b1111111111111111111111111111111100000000000000000000000000000000 3

#80000
0!
0+

#85000
1!
1+

#86000
b10001 %
b11111111111111111111111111111111 &
0'
b101 )
b10001 /

#90000
0!
0+

#95000
1!
1+

#96000
b11111111111111111111111111111111 #
b11111111111111111111111111111111 $
b0 &
1'
b110 )
b11111111111111111111111111111111 -
b11111111111111111111111111111111 .
b11111 0
b1 1
b1111111111111111111111111111111000000000000000000000000000000001 2
b1111111111111111111111111111111100000000000000000000000000000001 3

#100000
0!
0+

#105000
1!
1+

#106000
b11000011010100000 #
b11000011010100000 $
b10 &
0'
b111 )
b11000011010100000 -
b11000011010100000 .
b0 0
b1001010100000010111110010000000000 1
b1001010100000010111110010000000000 2
b1001010100000010111110010000000000 3

#110000
0!
0+

#115000
1!
1+

#116000
b11111111111111111111111111111111 #
b1010 $
b10010 %
b11111111111111111111111111111111 &
b1000 )
b11111111111111111111111111111111 -
b1010 .
b10010 /
b1010 0
b1111111111111111111111111111111111111111111111111111111111110110 1
b100111111111111111111111111111110110 2
b1111111111111111111111111111111111111111111111111111111111110110 3

#120000
0!
0+

#125000
1!
1+

#126000
b101 #
b11111111111111111111111111111111 $
b100 &
b1001 )
b101 -
b11111111111111111111111111111111 .
b11111 0
b1111111111111111111111111111111111111111111111111111111111111011 1
b10011111111111111111111111111111011 2
b10011111111111111111111111111111011 3

#130000
0!
0+

#135000
1!
1+

#136000
b11111111111111111111111111111111 #
b10011 %
b11111111111111111111111111111110 &
b1010 )
b11111111111111111111111111111111 -
b10011 /
b1 1
b1111111111111111111111111111111000000000000000000000000000000001 2
b1111111111111111111111111111111100000000000000000000000000000001 3

#140000
0!
0+

#145000
1!
1+

#146000
b10000000000000000000000000000000 #
b10 $
b1 &
b1011 )
b10000000000000000000000000000000 -
b10 .
b10 0
b1111111111111111111111111111111100000000000000000000000000000000 1
b100000000000000000000000000000000 2
b1111111111111111111111111111111100000000000000000000000000000000 3

#150000
0!
0+

#155000
1!
1+

#156000
b10100 #
b11 $
b10100 %
b0 &
1'
0(
b1100 )
b10100 -
b11 .
b10100 /
b11 0
b111100 1
b111100 2
b111100 3
14
15
1:
1<
1=
1B

#160000
0!
0+

#165000
1!
b110 &
0'
1(
1+
04
b110 7
18
1;
0<
b110 ?
1@
1A
0B
b10100 C
b11 D
b110 E
b10 F

#166000
b11111111111111111111111111101100 #
b1101 )
b11111111111111111111111111101100 -
b1111111111111111111111111111111111111111111111111111111111000100 1
b1011111111111111111111111111000100 2
b1111111111111111111111111111111111111111111111111111111111000100 3

#170000
0!
0+

#175000
1!
0(
1+
08
0@
0A

#176000
b10100 #
b11111111111111111111111111111101 $
b1 *
b10100 -
b11111111111111111111111111111101 .
b11101 0
b1001111111111111111111111111111000100 2
b1001111111111111111111111111111000100 3

