m_extension.vcd
$date
   Sat Jan 17 21:04:26 2026
$end

$version
  2025.1.0
  $dumpfile ("m_extension.vcd") 
$end

$timescale
  1ps
$end

$scope module tb_mtype $end
$var reg 1 ! clk $end
$var reg 1 " reset $end
$var reg 32 # a [31:0] $end
$var reg 32 $ b [31:0] $end
$var reg 5 % op $end
$var reg 32 & result [31:0] $end
$var reg 1 ' zero $end
$var reg 1 ( ready $end
$var reg 32 ) pass_count [31:0] $end
$var reg 32 * fail_count [31:0] $end
$scope module dut $end
$var wire 1 + clk $end
$var wire 1 , reset $end
$var wire 32 - a [31:0] $end
$var wire 32 . b [31:0] $end
$var wire 5 / op $end
$var reg 1 ' zero $end
$var reg 32 & result [31:0] $end
$var reg 1 ( ready $end
$var reg 5 0 shift_amt [4:0] $end
$var reg 64 1 mul_signed [63:0] $end
$var reg 64 2 mul_unsigned [63:0] $end
$var reg 64 3 mul_mixed [63:0] $end
$var reg 1 4 div_start $end
$var reg 1 5 div_is_signed $end
$var reg 1 6 div_is_rem $end
$var reg 32 7 div_result [31:0] $end
$var reg 1 8 div_done $end
$var reg 1 9 div_busy $end
$var reg 32 : divider_remainder_out [31:0] $end
$var reg 1 ; is_div_op $end
$scope module divider_inst $end
$var wire 1 + clk $end
$var wire 1 , reset $end
$var wire 1 < start $end
$var wire 1 = is_signed $end
$var wire 1 > is_rem $end
$var wire 32 - dividend [31:0] $end
$var wire 32 . divisor [31:0] $end
$var reg 32 7 result [31:0] $end
$var reg 32 : remainder_out [31:0] $end
$var reg 1 8 done $end
$var reg 1 9 busy $end
$var reg 2 ? state $end
$var reg 2 @ next_state $end
$var reg 33 A reg_A [32:0] $end
$var reg 32 B reg_Q [31:0] $end
$var reg 32 C reg_M [31:0] $end
$var reg 6 D count [5:0] $end
$var reg 1 E sign_dividend $end
$var reg 1 F sign_divisor $end
$var reg 32 G abs_dividend [31:0] $end
$var reg 32 H abs_divisor [31:0] $end
$var reg 33 I shifted_A [32:0] $end
$var reg 33 J alu_out [32:0] $end
$var reg 1 K op_add $end
$var reg 1 L sign_result $end
$var reg 1 M sign_remainder $end
$upscope $end
$upscope $end
$scope task test_op $end
$upscope $end
$upscope $end
$enddefinitions $end

#0
$dumpvars
0!
1"
b0 #
b0 $
b0 %
b0 &
1'
1(
b0 )
b0 *
0+
1,
b0 -
b0 .
b0 /
b0 0
b0 1
b0 2
b0 3
04
05
06
bx 7
x8
x9
bx :
0;
0<
0=
0>
bx ?
bx @
bx A
bx B
bx C
bx D
xE
xF
b0 G
b0 H
bx I
bx J
xK
xL
xM
$end

#5000
1!
1+
b0 7
08
09
b0 :
b0 ?
b0 A
b0 B
b0 C
b0 D
b0 I
b0 J
0K

#10000
0!
0+

#15000
1!
0"
1+
0,

#20000
0!
0+

#25000
1!
1+

#30000
0!
0+

#35000
1!
1+

#40000
0!
b1010 #
b101 $
b10000 %
b110010 &
0'
0+
b1010 -
b101 .
b10000 /
b101 0
b110010 1
b110010 2
b110010 3
b1010 G
b101 H

#45000
1!
1+

#46000
b0 %
b1111 &
b1 )
b0 /

#50000
0!
0+

#55000
1!
1+

#60000
0!
b1100100 #
b1100100 $
b10000 %
b10011100010000 &
0+
b1100100 -
b1100100 .
b10000 /
b100 0
b10011100010000 1
b10011100010000 2
b10011100010000 3
b1100100 G
b1100100 H

#65000
1!
1+

#66000
b0 %
b11001000 &
b10 )
b0 /

#70000
0!
0+

#75000
1!
1+

#80000
0!
b11111111111111111111111111111011 #
b11 $
b10000 %
b11111111111111111111111111110001 &
0+
b11111111111111111111111111111011 -
b11 .
b10000 /
b11 0
b1111111111111111111111111111111111111111111111111111111111110001 1
b1011111111111111111111111111110001 2
b1111111111111111111111111111111111111111111111111111111111110001 3
b11111111111111111111111111111011 G
b11 H

#85000
1!
1+

#86000
b0 %
b11111111111111111111111111111110 &
b11 )
b0 /

#90000
0!
0+

#95000
1!
1+

#100000
0!
b11111111111111111111111111111111 #
b11111111111111111111111111111111 $
b10000 %
b1 &
0+
b11111111111111111111111111111111 -
b11111111111111111111111111111111 .
b10000 /
b11111 0
b1 1
b1111111111111111111111111111111000000000000000000000000000000001 2
b1111111111111111111111111111111100000000000000000000000000000001 3
b11111111111111111111111111111111 G
b11111111111111111111111111111111 H

#105000
1!
1+

#106000
b0 %
b11111111111111111111111111111110 &
b100 )
b0 /

#110000
0!
0+

#115000
1!
1+

#120000
0!
b10000000000000000000000000000000 #
b10 $
b10000 %
b0 &
1'
0+
b10000000000000000000000000000000 -
b10 .
b10000 /
b10 0
b1111111111111111111111111111111100000000000000000000000000000000 1
b100000000000000000000000000000000 2
b1111111111111111111111111111111100000000000000000000000000000000 3
b10000000000000000000000000000000 G
b10 H

#125000
1!
1+

#126000
b0 %
b10000000000000000000000000000010 &
0'
b101 )
b0 /

#130000
0!
0+

#135000
1!
1+

#140000
0!
b10001 %
b11111111111111111111111111111111 &
0+
b10001 /

#145000
1!
1+

#146000
b0 %
b10000000000000000000000000000010 &
b110 )
b0 /

#150000
0!
0+

#155000
1!
1+

#160000
0!
b11111111111111111111111111111111 #
b11111111111111111111111111111111 $
b10001 %
b0 &
1'
0+
b11111111111111111111111111111111 -
b11111111111111111111111111111111 .
b10001 /
b11111 0
b1 1
b1111111111111111111111111111111000000000000000000000000000000001 2
b1111111111111111111111111111111100000000000000000000000000000001 3
b11111111111111111111111111111111 G
b11111111111111111111111111111111 H

#165000
1!
1+

#166000
b0 %
b11111111111111111111111111111110 &
0'
b111 )
b0 /

#170000
0!
0+

#175000
1!
1+

#180000
0!
b11000011010100000 #
b11000011010100000 $
b10001 %
b10 &
0+
b11000011010100000 -
b11000011010100000 .
b10001 /
b0 0
b1001010100000010111110010000000000 1
b1001010100000010111110010000000000 2
b1001010100000010111110010000000000 3
b11000011010100000 G
b11000011010100000 H

#185000
1!
1+

#186000
b0 %
b110000110101000000 &
b1000 )
b0 /

#190000
0!
0+

#195000
1!
1+

#200000
0!
b11111111111111111111111111111111 #
b1010 $
b10010 %
b11111111111111111111111111111111 &
0+
b11111111111111111111111111111111 -
b1010 .
b10010 /
b1010 0
b1111111111111111111111111111111111111111111111111111111111110110 1
b100111111111111111111111111111110110 2
b1111111111111111111111111111111111111111111111111111111111110110 3
b11111111111111111111111111111111 G
b1010 H

#205000
1!
1+

#206000
b0 %
b1001 &
b1001 )
b0 /

#210000
0!
0+

#215000
1!
1+

#220000
0!
b101 #
b11111111111111111111111111111111 $
b10010 %
b100 &
0+
b101 -
b11111111111111111111111111111111 .
b10010 /
b11111 0
b1111111111111111111111111111111111111111111111111111111111111011 1
b10011111111111111111111111111111011 2
b10011111111111111111111111111111011 3
b101 G
b11111111111111111111111111111111 H

#225000
1!
1+

#226000
b0 %
b1010 )
b0 /

#230000
0!
0+

#235000
1!
1+

#240000
0!
b11111111111111111111111111111111 #
b10011 %
b11111111111111111111111111111110 &
0+
b11111111111111111111111111111111 -
b10011 /
b1 1
b1111111111111111111111111111111000000000000000000000000000000001 2
b1111111111111111111111111111111100000000000000000000000000000001 3
b11111111111111111111111111111111 G

#245000
1!
1+

#246000
b0 %
b1011 )
b0 /

#250000
0!
0+

#255000
1!
1+

#260000
0!
b10000000000000000000000000000000 #
b10 $
b10011 %
b1 &
0+
b10000000000000000000000000000000 -
b10 .
b10011 /
b10 0
b1111111111111111111111111111111100000000000000000000000000000000 1
b100000000000000000000000000000000 2
b1111111111111111111111111111111100000000000000000000000000000000 3
b10000000000000000000000000000000 G
b10 H

#265000
1!
1+

#266000
b0 %
b10000000000000000000000000000010 &
b1100 )
b0 /

#270000
0!
0+

#275000
1!
1+

#280000
0!
b10100 #
b11 $
b10100 %
b0 &
1'
0(
0+
b10100 -
b11 .
b10100 /
b11 0
b111100 1
b111100 2
b111100 3
14
15
1;
1<
1=
b10100 G
b11 H

#285000
1!
b10100 &
0'
1+
04
b10100 7
19
0<
b1 ?
b10100 B
b11 C
b100000 D
0E
0F
b111111111111111111111111111111101 J
0L
0M

#290000
0!
0+

#295000
1!
b101000 &
1+
b101000 7
b11111111111111111111111111111101 :
b111111111111111111111111111111101 A
b101000 B
b11111 D
b111111111111111111111111111111010 I
1K

#300000
0!
0+

#305000
1!
b1010000 &
1+
b1010000 7
b1010000 B
b11110 D

#310000
0!
0+

#315000
1!
b10100000 &
1+
b10100000 7
b10100000 B
b11101 D

#320000
0!
0+

#325000
1!
b101000000 &
1+
b101000000 7
b101000000 B
b11100 D

#330000
0!
0+

#335000
1!
b1010000000 &
1+
b1010000000 7
b1010000000 B
b11011 D

#340000
0!
0+

#345000
1!
b10100000000 &
1+
b10100000000 7
b10100000000 B
b11010 D

#350000
0!
0+

#355000
1!
b101000000000 &
1+
b101000000000 7
b101000000000 B
b11001 D

#360000
0!
0+

#365000
1!
b1010000000000 &
1+
b1010000000000 7
b1010000000000 B
b11000 D

#370000
0!
0+

#375000
1!
b10100000000000 &
1+
b10100000000000 7
b10100000000000 B
b10111 D

#380000
0!
0+

#385000
1!
b101000000000000 &
1+
b101000000000000 7
b101000000000000 B
b10110 D

#390000
0!
0+

#395000
1!
b1010000000000000 &
1+
b1010000000000000 7
b1010000000000000 B
b10101 D

#400000
0!
0+

#405000
1!
b10100000000000000 &
1+
b10100000000000000 7
b10100000000000000 B
b10100 D

#410000
0!
0+

#415000
1!
b101000000000000000 &
1+
b101000000000000000 7
b101000000000000000 B
b10011 D

#420000
0!
0+

#425000
1!
b1010000000000000000 &
1+
b1010000000000000000 7
b1010000000000000000 B
b10010 D

#430000
0!
0+

#435000
1!
b10100000000000000000 &
1+
b10100000000000000000 7
b10100000000000000000 B
b10001 D

#440000
0!
0+

#445000
1!
b101000000000000000000 &
1+
b101000000000000000000 7
b101000000000000000000 B
b10000 D

#450000
0!
0+

#455000
1!
b1010000000000000000000 &
1+
b1010000000000000000000 7
b1010000000000000000000 B
b1111 D

#460000
0!
0+

#465000
1!
b10100000000000000000000 &
1+
b10100000000000000000000 7
b10100000000000000000000 B
b1110 D

#470000
0!
0+

#475000
1!
b101000000000000000000000 &
1+
b101000000000000000000000 7
b101000000000000000000000 B
b1101 D

#480000
0!
0+

#485000
1!
b1010000000000000000000000 &
1+
b1010000000000000000000000 7
b1010000000000000000000000 B
b1100 D

#490000
0!
0+

#495000
1!
b10100000000000000000000000 &
1+
b10100000000000000000000000 7
b10100000000000000000000000 B
b1011 D

#500000
0!
0+

#505000
1!
b101000000000000000000000000 &
1+
b101000000000000000000000000 7
b101000000000000000000000000 B
b1010 D

#510000
0!
0+

#515000
1!
b1010000000000000000000000000 &
1+
b1010000000000000000000000000 7
b1010000000000000000000000000 B
b1001 D

#520000
0!
0+

#525000
1!
b10100000000000000000000000000 &
1+
b10100000000000000000000000000 7
b10100000000000000000000000000 B
b1000 D

#530000
0!
0+

#535000
1!
b101000000000000000000000000000 &
1+
b101000000000000000000000000000 7
b101000000000000000000000000000 B
b111 D

#540000
0!
0+

#545000
1!
b1010000000000000000000000000000 &
1+
b1010000000000000000000000000000 7
b1010000000000000000000000000000 B
b110 D

#550000
0!
0+

#555000
1!
b10100000000000000000000000000000 &
1+
b10100000000000000000000000000000 7
b10100000000000000000000000000000 B
b101 D
b111111111111111111111111111111011 I
b111111111111111111111111111111110 J

#560000
0!
0+

#565000
1!
b1000000000000000000000000000000 &
1+
b1000000000000000000000000000000 7
b11111111111111111111111111111110 :
b111111111111111111111111111111110 A
b1000000000000000000000000000000 B
b100 D
b111111111111111111111111111111100 I
b111111111111111111111111111111111 J

#570000
0!
0+

#575000
1!
b10000000000000000000000000000000 &
1+
b10000000000000000000000000000000 7
b11111111111111111111111111111111 :
b111111111111111111111111111111111 A
b10000000000000000000000000000000 B
b11 D
b111111111111111111111111111111111 I
b10 J

#580000
0!
0+

#585000
1!
b1 &
1+
b1 7
b10 :
b10 A
b1 B
b10 D
b100 I
b1 J
0K

#590000
0!
0+

#595000
1!
b11 &
1+
b11 7
b1 :
b1 A
b11 B
b1 D
b10 I
b111111111111111111111111111111111 J

#600000
0!
0+

#605000
1!
b110 &
1+
b110 7
b11111111111111111111111111111111 :
b10 ?
b111111111111111111111111111111111 A
b110 B
b0 D
b111111111111111111111111111111110 I
b1 J
1K

#610000
0!
0+

#615000
1!
1+
b10 :
b11 ?
b10 A
b100 I
0K

#620000
0!
0+

#625000
1!
1(
1+
18
09
b0 ?

#630000
0!
0+

#635000
1!
0(
1+
14
08
1<

#636000
b0 %
b10111 &
1(
b1101 )
b0 /
04
05
0;
0<
0=

#640000
0!
0+

#645000
1!
1+

#650000
0!
b11111111111111111111111111101100 #
b10100 %
b110 &
0(
0+
b11111111111111111111111111101100 -
b10100 /
b1111111111111111111111111111111111111111111111111111111111000100 1
b1011111111111111111111111111000100 2
b1111111111111111111111111111111111111111111111111111111111000100 3
14
15
1;
1<
1=

#655000
1!
b11111111111111111111111111101100 &
1+
04
b11111111111111111111111111101100 7
19
b0 :
0<
b1 ?
b0 A
b10100 B
b100000 D
1E
b0 I
b111111111111111111111111111111101 J
1L
1M

#660000
0!
0+

#665000
1!
b11111111111111111111111111011000 &
1+
b11111111111111111111111111011000 7
b11 :
b111111111111111111111111111111101 A
b101000 B
b11111 D
b111111111111111111111111111111010 I
1K

#670000
0!
0+

#675000
1!
b11111111111111111111111110110000 &
1+
b11111111111111111111111110110000 7
b1010000 B
b11110 D

#680000
0!
0+

#685000
1!
b11111111111111111111111101100000 &
1+
b11111111111111111111111101100000 7
b10100000 B
b11101 D

#690000
0!
0+

#695000
1!
b11111111111111111111111011000000 &
1+
b11111111111111111111111011000000 7
b101000000 B
b11100 D

#700000
0!
0+

#705000
1!
b11111111111111111111110110000000 &
1+
b11111111111111111111110110000000 7
b1010000000 B
b11011 D

#710000
0!
0+

#715000
1!
b11111111111111111111101100000000 &
1+
b11111111111111111111101100000000 7
b10100000000 B
b11010 D

#720000
0!
0+

#725000
1!
b11111111111111111111011000000000 &
1+
b11111111111111111111011000000000 7
b101000000000 B
b11001 D

#730000
0!
0+

#735000
1!
b11111111111111111110110000000000 &
1+
b11111111111111111110110000000000 7
b1010000000000 B
b11000 D

#740000
0!
0+

#745000
1!
b11111111111111111101100000000000 &
1+
b11111111111111111101100000000000 7
b10100000000000 B
b10111 D

#750000
0!
0+

#755000
1!
b11111111111111111011000000000000 &
1+
b11111111111111111011000000000000 7
b101000000000000 B
b10110 D

#760000
0!
0+

#765000
1!
b11111111111111110110000000000000 &
1+
b11111111111111110110000000000000 7
b1010000000000000 B
b10101 D

#770000
0!
0+

#775000
1!
b11111111111111101100000000000000 &
1+
b11111111111111101100000000000000 7
b10100000000000000 B
b10100 D

#780000
0!
0+

#785000
1!
b11111111111111011000000000000000 &
1+
b11111111111111011000000000000000 7
b101000000000000000 B
b10011 D

#790000
0!
0+

#795000
1!
b11111111111110110000000000000000 &
1+
b11111111111110110000000000000000 7
b1010000000000000000 B
b10010 D

#800000
0!
0+

#805000
1!
b11111111111101100000000000000000 &
1+
b11111111111101100000000000000000 7
b10100000000000000000 B
b10001 D

#810000
0!
0+

#815000
1!
b11111111111011000000000000000000 &
1+
b11111111111011000000000000000000 7
b101000000000000000000 B
b10000 D

#820000
0!
0+

#825000
1!
b11111111110110000000000000000000 &
1+
b11111111110110000000000000000000 7
b1010000000000000000000 B
b1111 D

#830000
0!
0+

#835000
1!
b11111111101100000000000000000000 &
1+
b11111111101100000000000000000000 7
b10100000000000000000000 B
b1110 D

#840000
0!
0+

#845000
1!
b11111111011000000000000000000000 &
1+
b11111111011000000000000000000000 7
b101000000000000000000000 B
b1101 D

#850000
0!
0+

#855000
1!
b11111110110000000000000000000000 &
1+
b11111110110000000000000000000000 7
b1010000000000000000000000 B
b1100 D

#860000
0!
0+

#865000
1!
b11111101100000000000000000000000 &
1+
b11111101100000000000000000000000 7
b10100000000000000000000000 B
b1011 D

#870000
0!
0+

#875000
1!
b11111011000000000000000000000000 &
1+
b11111011000000000000000000000000 7
b101000000000000000000000000 B
b1010 D

#880000
0!
0+

#885000
1!
b11110110000000000000000000000000 &
1+
b11110110000000000000000000000000 7
b1010000000000000000000000000 B
b1001 D

#890000
0!
0+

#895000
1!
b11101100000000000000000000000000 &
1+
b11101100000000000000000000000000 7
b10100000000000000000000000000 B
b1000 D

#900000
0!
0+

#905000
1!
b11011000000000000000000000000000 &
1+
b11011000000000000000000000000000 7
b101000000000000000000000000000 B
b111 D

#910000
0!
0+

#915000
1!
b10110000000000000000000000000000 &
1+
b10110000000000000000000000000000 7
b1010000000000000000000000000000 B
b110 D

#920000
0!
0+

#925000
1!
b1100000000000000000000000000000 &
1+
b1100000000000000000000000000000 7
b10100000000000000000000000000000 B
b101 D
b111111111111111111111111111111011 I
b111111111111111111111111111111110 J

#930000
0!
0+

#935000
1!
b11000000000000000000000000000000 &
1+
b11000000000000000000000000000000 7
b10 :
b111111111111111111111111111111110 A
b1000000000000000000000000000000 B
b100 D
b111111111111111111111111111111100 I
b111111111111111111111111111111111 J

#940000
0!
0+

#945000
1!
b10000000000000000000000000000000 &
1+
b10000000000000000000000000000000 7
b1 :
b111111111111111111111111111111111 A
b10000000000000000000000000000000 B
b11 D
b111111111111111111111111111111111 I
b10 J

#950000
0!
0+

#955000
1!
b11111111111111111111111111111111 &
1+
b11111111111111111111111111111111 7
b11111111111111111111111111111110 :
b10 A
b1 B
b10 D
b100 I
b1 J
0K

#960000
0!
0+

#965000
1!
b11111111111111111111111111111101 &
1+
b11111111111111111111111111111101 7
b11111111111111111111111111111111 :
b1 A
b11 B
b1 D
b10 I
b111111111111111111111111111111111 J

#970000
0!
0+

#975000
1!
b11111111111111111111111111111010 &
1+
b11111111111111111111111111111010 7
b1 :
b10 ?
b111111111111111111111111111111111 A
b110 B
b0 D
b111111111111111111111111111111110 I
b1 J
1K

#980000
0!
0+

#985000
1!
1+
b11111111111111111111111111111110 :
b11 ?
b10 A
b100 I
0K

#990000
0!
0+

#995000
1!
1(
1+
18
09
b0 ?

#1000000
0!
0+

#1005000
1!
0(
1+
14
08
1<

#1006000
b0 %
b11111111111111111111111111101111 &
1(
b1110 )
b0 /
04
05
0;
0<
0=
b11111111111111111111111111101100 G

#1010000
0!
0+

#1015000
1!
1+

#1020000
0!
b10100 #
b11111111111111111111111111111101 $
b10100 %
b11111111111111111111111111111010 &
0(
0+
b10100 -
b11111111111111111111111111111101 .
b10100 /
b11101 0
b1001111111111111111111111111111000100 2
b1001111111111111111111111111111000100 3
14
15
1;
1<
1=
b10100 G

#1025000
1!
b11111111111111111111111111101100 &
1+
04
b11111111111111111111111111101100 7
19
b0 :
0<
b1 ?
b0 A
b10100 B
b100000 D
0E
1F
b0 I
b111111111111111111111111111111101 J
0M

#1030000
0!
0+

#1035000
1!
b11111111111111111111111111011000 &
1+
b11111111111111111111111111011000 7
b11111111111111111111111111111101 :
b111111111111111111111111111111101 A
b101000 B
b11111 D
b111111111111111111111111111111010 I
1K

#1040000
0!
0+

#1045000
1!
b11111111111111111111111110110000 &
1+
b11111111111111111111111110110000 7
b1010000 B
b11110 D

#1050000
0!
0+

#1055000
1!
b11111111111111111111111101100000 &
1+
b11111111111111111111111101100000 7
b10100000 B
b11101 D

#1060000
0!
0+

#1065000
1!
b11111111111111111111111011000000 &
1+
b11111111111111111111111011000000 7
b101000000 B
b11100 D

#1070000
0!
0+

#1075000
1!
b11111111111111111111110110000000 &
1+
b11111111111111111111110110000000 7
b1010000000 B
b11011 D

#1080000
0!
0+

#1085000
1!
b11111111111111111111101100000000 &
1+
b11111111111111111111101100000000 7
b10100000000 B
b11010 D

#1090000
0!
0+

#1095000
1!
b11111111111111111111011000000000 &
1+
b11111111111111111111011000000000 7
b101000000000 B
b11001 D

#1100000
0!
0+

#1105000
1!
b11111111111111111110110000000000 &
1+
b11111111111111111110110000000000 7
b1010000000000 B
b11000 D

#1110000
0!
0+

#1115000
1!
b11111111111111111101100000000000 &
1+
b11111111111111111101100000000000 7
b10100000000000 B
b10111 D

#1120000
0!
0+

#1125000
1!
b11111111111111111011000000000000 &
1+
b11111111111111111011000000000000 7
b101000000000000 B
b10110 D

#1130000
0!
0+

#1135000
1!
b11111111111111110110000000000000 &
1+
b11111111111111110110000000000000 7
b1010000000000000 B
b10101 D

#1140000
0!
0+

#1145000
1!
b11111111111111101100000000000000 &
1+
b11111111111111101100000000000000 7
b10100000000000000 B
b10100 D

#1150000
0!
0+

#1155000
1!
b11111111111111011000000000000000 &
1+
b11111111111111011000000000000000 7
b101000000000000000 B
b10011 D

#1160000
0!
0+

#1165000
1!
b11111111111110110000000000000000 &
1+
b11111111111110110000000000000000 7
b1010000000000000000 B
b10010 D

#1170000
0!
0+

#1175000
1!
b11111111111101100000000000000000 &
1+
b11111111111101100000000000000000 7
b10100000000000000000 B
b10001 D

#1180000
0!
0+

#1185000
1!
b11111111111011000000000000000000 &
1+
b11111111111011000000000000000000 7
b101000000000000000000 B
b10000 D

#1190000
0!
0+

#1195000
1!
b11111111110110000000000000000000 &
1+
b11111111110110000000000000000000 7
b1010000000000000000000 B
b1111 D

#1200000
0!
0+

#1205000
1!
b11111111101100000000000000000000 &
1+
b11111111101100000000000000000000 7
b10100000000000000000000 B
b1110 D

#1210000
0!
0+

#1215000
1!
b11111111011000000000000000000000 &
1+
b11111111011000000000000000000000 7
b101000000000000000000000 B
b1101 D

#1220000
0!
0+

#1225000
1!
b11111110110000000000000000000000 &
1+
b11111110110000000000000000000000 7
b1010000000000000000000000 B
b1100 D

#1230000
0!
0+

#1235000
1!
b11111101100000000000000000000000 &
1+
b11111101100000000000000000000000 7
b10100000000000000000000000 B
b1011 D

#1240000
0!
0+

#1245000
1!
b11111011000000000000000000000000 &
1+
b11111011000000000000000000000000 7
b101000000000000000000000000 B
b1010 D

#1250000
0!
0+

#1255000
1!
b11110110000000000000000000000000 &
1+
b11110110000000000000000000000000 7
b1010000000000000000000000000 B
b1001 D

#1260000
0!
0+

#1265000
1!
b11101100000000000000000000000000 &
1+
b11101100000000000000000000000000 7
b10100000000000000000000000000 B
b1000 D

#1270000
0!
0+

#1275000
1!
b11011000000000000000000000000000 &
1+
b11011000000000000000000000000000 7
b101000000000000000000000000000 B
b111 D

#1280000
0!
0+

#1285000
1!
b10110000000000000000000000000000 &
1+
b10110000000000000000000000000000 7
b1010000000000000000000000000000 B
b110 D

#1290000
0!
0+

#1295000
1!
b1100000000000000000000000000000 &
1+
b1100000000000000000000000000000 7
b10100000000000000000000000000000 B
b101 D
b111111111111111111111111111111011 I
b111111111111111111111111111111110 J

#1300000
0!
0+

#1305000
1!
b11000000000000000000000000000000 &
1+
b11000000000000000000000000000000 7
b11111111111111111111111111111110 :
b111111111111111111111111111111110 A
b1000000000000000000000000000000 B
b100 D
b111111111111111111111111111111100 I
b111111111111111111111111111111111 J

#1310000
0!
0+

#1315000
1!
b10000000000000000000000000000000 &
1+
b10000000000000000000000000000000 7
b11111111111111111111111111111111 :
b111111111111111111111111111111111 A
b10000000000000000000000000000000 B
b11 D
b111111111111111111111111111111111 I
b10 J

#1320000
0!
0+

#1325000
1!
b11111111111111111111111111111111 &
1+
b11111111111111111111111111111111 7
b10 :
b10 A
b1 B
b10 D
b100 I
b1 J
0K

#1330000
0!
0+

#1335000
1!
b11111111111111111111111111111101 &
1+
b11111111111111111111111111111101 7
b1 :
b1 A
b11 B
b1 D
b10 I
b111111111111111111111111111111111 J

#1340000
0!
0+

#1345000
1!
b11111111111111111111111111111010 &
1+
b11111111111111111111111111111010 7
b11111111111111111111111111111111 :
b10 ?
b111111111111111111111111111111111 A
b110 B
b0 D
b111111111111111111111111111111110 I
b1 J
1K

#1350000
0!
0+

#1355000
1!
1+
b10 :
b11 ?
b10 A
b100 I
0K

#1360000
0!
0+

#1365000
1!
1(
1+
18
09
b0 ?

#1370000
0!
0+

#1375000
1!
0(
1+
14
08
1<

#1376000
b0 %
b10001 &
1(
b1111 )
b0 /
04
05
0;
0<
0=
b11111111111111111111111111111101 H

#1380000
0!
0+

#1385000
1!
1+

#1390000
0!
b11111111111111111111111111101100 #
b10100 %
b11111111111111111111111111111010 &
0(
0+
b11111111111111111111111111101100 -
b10100 /
b111100 1
b1111111111111111111111111110100100000000000000000000000000111100 2
b1111111111111111111111111110110000000000000000000000000000111100 3
14
15
1;
1<
1=
b11 H

#1395000
1!
b10100 &
1+
04
b10100 7
19
b0 :
0<
b1 ?
b0 A
b10100 B
b100000 D
1E
b0 I
b111111111111111111111111111111101 J
0L
1M

#1400000
0!
0+

#1405000
1!
b101000 &
1+
b101000 7
b11 :
b111111111111111111111111111111101 A
b101000 B
b11111 D
b111111111111111111111111111111010 I
1K

#1410000
0!
0+

#1415000
1!
b1010000 &
1+
b1010000 7
b1010000 B
b11110 D

#1420000
0!
0+

#1425000
1!
b10100000 &
1+
b10100000 7
b10100000 B
b11101 D

#1430000
0!
0+

#1435000
1!
b101000000 &
1+
b101000000 7
b101000000 B
b11100 D

#1440000
0!
0+

#1445000
1!
b1010000000 &
1+
b1010000000 7
b1010000000 B
b11011 D

#1450000
0!
0+

#1455000
1!
b10100000000 &
1+
b10100000000 7
b10100000000 B
b11010 D

#1460000
0!
0+

#1465000
1!
b101000000000 &
1+
b101000000000 7
b101000000000 B
b11001 D

#1470000
0!
0+

#1475000
1!
b1010000000000 &
1+
b1010000000000 7
b1010000000000 B
b11000 D

#1480000
0!
0+

#1485000
1!
b10100000000000 &
1+
b10100000000000 7
b10100000000000 B
b10111 D

#1490000
0!
0+

#1495000
1!
b101000000000000 &
1+
b101000000000000 7
b101000000000000 B
b10110 D

#1500000
0!
0+

#1505000
1!
b1010000000000000 &
1+
b1010000000000000 7
b1010000000000000 B
b10101 D

#1510000
0!
0+

#1515000
1!
b10100000000000000 &
1+
b10100000000000000 7
b10100000000000000 B
b10100 D

#1520000
0!
0+

#1525000
1!
b101000000000000000 &
1+
b101000000000000000 7
b101000000000000000 B
b10011 D

#1530000
0!
0+

#1535000
1!
b1010000000000000000 &
1+
b1010000000000000000 7
b1010000000000000000 B
b10010 D

#1540000
0!
0+

#1545000
1!
b10100000000000000000 &
1+
b10100000000000000000 7
b10100000000000000000 B
b10001 D

#1550000
0!
0+

#1555000
1!
b101000000000000000000 &
1+
b101000000000000000000 7
b101000000000000000000 B
b10000 D

#1560000
0!
0+

#1565000
1!
b1010000000000000000000 &
1+
b1010000000000000000000 7
b1010000000000000000000 B
b1111 D

#1570000
0!
0+

#1575000
1!
b10100000000000000000000 &
1+
b10100000000000000000000 7
b10100000000000000000000 B
b1110 D

#1580000
0!
0+

#1585000
1!
b101000000000000000000000 &
1+
b101000000000000000000000 7
b101000000000000000000000 B
b1101 D

#1590000
0!
0+

#1595000
1!
b1010000000000000000000000 &
1+
b1010000000000000000000000 7
b1010000000000000000000000 B
b1100 D

#1600000
0!
0+

#1605000
1!
b10100000000000000000000000 &
1+
b10100000000000000000000000 7
b10100000000000000000000000 B
b1011 D

#1610000
0!
0+

#1615000
1!
b101000000000000000000000000 &
1+
b101000000000000000000000000 7
b101000000000000000000000000 B
b1010 D

#1620000
0!
0+

#1625000
1!
b1010000000000000000000000000 &
1+
b1010000000000000000000000000 7
b1010000000000000000000000000 B
b1001 D

#1630000
0!
0+

#1635000
1!
b10100000000000000000000000000 &
1+
b10100000000000000000000000000 7
b10100000000000000000000000000 B
b1000 D

#1640000
0!
0+

#1645000
1!
b101000000000000000000000000000 &
1+
b101000000000000000000000000000 7
b101000000000000000000000000000 B
b111 D

#1650000
0!
0+

#1655000
1!
b1010000000000000000000000000000 &
1+
b1010000000000000000000000000000 7
b1010000000000000000000000000000 B
b110 D

#1660000
0!
0+

#1665000
1!
b10100000000000000000000000000000 &
1+
b10100000000000000000000000000000 7
b10100000000000000000000000000000 B
b101 D
b111111111111111111111111111111011 I
b111111111111111111111111111111110 J

#1670000
0!
0+

#1675000
1!
b1000000000000000000000000000000 &
1+
b1000000000000000000000000000000 7
b10 :
b111111111111111111111111111111110 A
b1000000000000000000000000000000 B
b100 D
b111111111111111111111111111111100 I
b111111111111111111111111111111111 J

#1680000
0!
0+

#1685000
1!
b10000000000000000000000000000000 &
1+
b10000000000000000000000000000000 7
b1 :
b111111111111111111111111111111111 A
b10000000000000000000000000000000 B
b11 D
b111111111111111111111111111111111 I
b10 J

#1690000
0!
0+

#1695000
1!
b1 &
1+
b1 7
b11111111111111111111111111111110 :
b10 A
b1 B
b10 D
b100 I
b1 J
0K

#1700000
0!
0+

#1705000
1!
b11 &
1+
b11 7
b11111111111111111111111111111111 :
b1 A
b11 B
b1 D
b10 I
b111111111111111111111111111111111 J

#1710000
0!
0+

#1715000
1!
b110 &
1+
b110 7
b1 :
b10 ?
b111111111111111111111111111111111 A
b110 B
b0 D
b111111111111111111111111111111110 I
b1 J
1K

#1720000
0!
0+

#1725000
1!
1+
b11111111111111111111111111111110 :
b11 ?
b10 A
b100 I
0K

#1730000
0!
0+

#1735000
1!
1(
1+
18
09
b0 ?

#1740000
0!
0+

#1745000
1!
0(
1+
14
08
1<

#1746000
b0 %
b11111111111111111111111111101001 &
1(
b10000 )
b0 /
04
05
0;
0<
0=
b11111111111111111111111111101100 G
b11111111111111111111111111111101 H

#1750000
0!
0+

#1755000
1!
1+

#1760000
0!
b111 #
b0 $
b10100 %
b110 &
0(
0+
b111 -
b0 .
b10100 /
b0 0
b0 1
b0 2
b0 3
14
15
1;
1<
1=
b111 G
b0 H

#1765000
1!
b111 &
1+
04
b111 7
19
b0 :
0<
b1 ?
b0 A
b111 B
b0 C
b100000 D
0E
0F
b0 I
b0 J
0M

#1770000
0!
0+

#1775000
1!
b1111 &
1+
b1111 7
b1111 B
b11111 D

#1780000
0!
0+

#1785000
1!
b11111 &
1+
b11111 7
b11111 B
b11110 D

#1790000
0!
0+

