m_extension.vcd
$date
   Sat Jan 17 13:46:15 2026
$end

$version
  2025.1.0
  $dumpfile ("m_extension.vcd") 
$end

$timescale
  1ps
$end

$scope module tb_mtype $end
$var reg 1 ! clk $end
$var reg 1 " reset $end
$var reg 32 # a [31:0] $end
$var reg 32 $ b [31:0] $end
$var reg 5 % op $end
$var reg 32 & result [31:0] $end
$var reg 1 ' zero $end
$var reg 1 ( ready $end
$var reg 32 ) pass_count [31:0] $end
$var reg 32 * fail_count [31:0] $end
$scope module dut $end
$var wire 1 + clk $end
$var wire 1 , reset $end
$var wire 32 - a [31:0] $end
$var wire 32 . b [31:0] $end
$var wire 5 / op $end
$var reg 1 ' zero $end
$var reg 32 & result [31:0] $end
$var reg 1 ( ready $end
$var reg 5 0 shift_amt [4:0] $end
$var reg 64 1 mul_signed [63:0] $end
$var reg 64 2 mul_unsigned [63:0] $end
$var reg 64 3 mul_mixed [63:0] $end
$var reg 1 4 div_start $end
$var reg 1 5 div_is_signed $end
$var reg 1 6 div_is_rem $end
$var reg 32 7 div_result [31:0] $end
$var reg 1 8 div_done $end
$var reg 1 9 div_busy $end
$var reg 1 : is_div_op $end
$var reg 1 ; div_op_last $end
$scope module divider_inst $end
$var wire 1 + clk $end
$var wire 1 , reset $end
$var wire 1 < start $end
$var wire 1 = is_signed $end
$var wire 1 > is_rem $end
$var wire 32 - dividend [31:0] $end
$var wire 32 . divisor [31:0] $end
$var reg 32 7 result [31:0] $end
$var reg 1 8 done $end
$var reg 1 9 busy $end
$var reg 2 ? state $end
$var reg 2 @ next_state $end
$var reg 32 A quotient [31:0] $end
$var reg 32 B next_quotient [31:0] $end
$var reg 33 C remainder [32:0] $end
$var reg 33 D next_remainder [32:0] $end
$var reg 32 E divisor_reg [31:0] $end
$var reg 32 F next_divisor_reg [31:0] $end
$var reg 6 G count [5:0] $end
$var reg 6 H next_count [5:0] $end
$var reg 1 I dividend_sign $end
$var reg 1 J divisor_sign $end
$var reg 1 K result_sign_div $end
$var reg 1 L result_sign_rem $end
$var reg 32 M dividend_abs [31:0] $end
$var reg 32 N divisor_abs [31:0] $end
$scope begin Block77_5 $end
$var reg 33 O sub_result [32:0] $end
$upscope $end
$scope begin Block119_7 $end
$var reg 32 P rem_unsigned [31:0] $end
$upscope $end
$upscope $end
$upscope $end
$scope task test_op $end
$upscope $end
$upscope $end
$enddefinitions $end

#0
$dumpvars
0!
x"
b0 #
b0 $
b0 %
b0 &
1'
1(
b0 )
b0 *
z+
z,
b0 -
b0 .
b0 /
b0 0
b0 1
b0 2
b0 3
04
05
06
b11111111111111111111111111111111 7
x8
x9
0:
x;
0<
0=
0>
bx ?
bx @
bx A
bx B
bx C
bx D
bx E
bx F
bx G
bx H
0I
0J
0K
0L
b0 M
b0 N
bx O
bx P
$end

#5000
1!

#10000
0!

#15000
1!

#20000
0!

#25000
1!

#30000
0!

#35000
1!
b1010 #
b101 $
b10000 %
b110010 &
0'
b1010 -
b101 .
b10000 /
b101 0
b110010 1
b110010 2
b110010 3
b0 7
b1010 M
b101 N

#40000
0!

#45000
1!

#46000
b1100100 #
b1100100 $
b10011100010000 &
b1 )
b1100100 -
b1100100 .
b100 0
b10011100010000 1
b10011100010000 2
b10011100010000 3
b1100100 M
b1100100 N

#50000
0!

#55000
1!

#56000
b11111111111111111111111111111011 #
b11 $
b11111111111111111111111111110001 &
b10 )
b11111111111111111111111111111011 -
b11 .
b11 0
b1111111111111111111111111111111111111111111111111111111111110001 1
b1011111111111111111111111111110001 2
b1111111111111111111111111111111111111111111111111111111111110001 3
b11111111111111111111111111111011 M
b11 N

#60000
0!

#65000
1!

#66000
b11111111111111111111111111111111 #
b11111111111111111111111111111111 $
b1 &
b11 )
b11111111111111111111111111111111 -
b11111111111111111111111111111111 .
b11111 0
b1 1
b1111111111111111111111111111111000000000000000000000000000000001 2
b1111111111111111111111111111111100000000000000000000000000000001 3
b11111111111111111111111111111111 M
b11111111111111111111111111111111 N

#70000
0!

#75000
1!

#76000
b10000000000000000000000000000000 #
b10 $
b0 &
1'
b100 )
b10000000000000000000000000000000 -
b10 .
b10 0
b1111111111111111111111111111111100000000000000000000000000000000 1
b100000000000000000000000000000000 2
b1111111111111111111111111111111100000000000000000000000000000000 3
b10000000000000000000000000000000 M
b10 N

#80000
0!

#85000
1!

#86000
b10001 %
b11111111111111111111111111111111 &
0'
b101 )
b10001 /

#90000
0!

#95000
1!

#96000
b11111111111111111111111111111111 #
b11111111111111111111111111111111 $
b0 &
1'
b110 )
b11111111111111111111111111111111 -
b11111111111111111111111111111111 .
b11111 0
b1 1
b1111111111111111111111111111111000000000000000000000000000000001 2
b1111111111111111111111111111111100000000000000000000000000000001 3
b11111111111111111111111111111111 M
b11111111111111111111111111111111 N

#100000
0!

#105000
1!

#106000
b11000011010100000 #
b11000011010100000 $
b10 &
0'
b111 )
b11000011010100000 -
b11000011010100000 .
b0 0
b1001010100000010111110010000000000 1
b1001010100000010111110010000000000 2
b1001010100000010111110010000000000 3
b11000011010100000 M
b11000011010100000 N

#110000
0!

#115000
1!

#116000
b11111111111111111111111111111111 #
b1010 $
b10010 %
b11111111111111111111111111111111 &
b1000 )
b11111111111111111111111111111111 -
b1010 .
b10010 /
b1010 0
b1111111111111111111111111111111111111111111111111111111111110110 1
b100111111111111111111111111111110110 2
b1111111111111111111111111111111111111111111111111111111111110110 3
b11111111111111111111111111111111 M
b1010 N

#120000
0!

#125000
1!

#126000
b101 #
b11111111111111111111111111111111 $
b100 &
b1001 )
b101 -
b11111111111111111111111111111111 .
b11111 0
b1111111111111111111111111111111111111111111111111111111111111011 1
b10011111111111111111111111111111011 2
b10011111111111111111111111111111011 3
b101 M
b11111111111111111111111111111111 N

#130000
0!

#135000
1!

#136000
b11111111111111111111111111111111 #
b10011 %
b11111111111111111111111111111110 &
b1010 )
b11111111111111111111111111111111 -
b10011 /
b1 1
b1111111111111111111111111111111000000000000000000000000000000001 2
b1111111111111111111111111111111100000000000000000000000000000001 3
b11111111111111111111111111111111 M

#140000
0!

#145000
1!

#146000
b10000000000000000000000000000000 #
b10 $
b1 &
b1011 )
b10000000000000000000000000000000 -
b10 .
b10 0
b1111111111111111111111111111111100000000000000000000000000000000 1
b100000000000000000000000000000000 2
b1111111111111111111111111111111100000000000000000000000000000000 3
b10000000000000000000000000000000 M
b10 N

#150000
0!

#155000
1!

#156000
b10100 #
b11 $
b10100 %
b0 &
1'
x(
b1100 )
b10100 -
b11 .
b10100 /
b11 0
b111100 1
b111100 2
b111100 3
x4
15
1:
x<
1=
b10100 M
b11 N

#160000
0!

#165000
1!

#166000
b11111111111111111111111111101100 #
b1 *
b11111111111111111111111111101100 -
b1111111111111111111111111111111111111111111111111111111111000100 1
b1011111111111111111111111111000100 2
b1111111111111111111111111111111111111111111111111111111111000100 3
1I
1K
1L
b10100 M

