m_extension.vcd
$date
   Sat Jan 17 14:25:54 2026
$end

$version
  2025.1.0
  $dumpfile ("m_extension.vcd") 
$end

$timescale
  1ps
$end

$scope module tb_mtype $end
$var reg 1 ! clk $end
$var reg 1 " reset $end
$var reg 32 # a [31:0] $end
$var reg 32 $ b [31:0] $end
$var reg 5 % op $end
$var reg 32 & result [31:0] $end
$var reg 1 ' zero $end
$var reg 1 ( ready $end
$var reg 32 ) pass_count [31:0] $end
$var reg 32 * fail_count [31:0] $end
$scope module dut $end
$var wire 1 + clk $end
$var wire 1 , reset $end
$var wire 32 - a [31:0] $end
$var wire 32 . b [31:0] $end
$var wire 5 / op $end
$var reg 1 ' zero $end
$var reg 32 & result [31:0] $end
$var reg 1 ( ready $end
$var reg 5 0 shift_amt [4:0] $end
$var reg 64 1 mul_signed [63:0] $end
$var reg 64 2 mul_unsigned [63:0] $end
$var reg 64 3 mul_mixed [63:0] $end
$var reg 1 4 div_start $end
$var reg 1 5 div_is_signed $end
$var reg 1 6 div_is_rem $end
$var reg 32 7 div_result [31:0] $end
$var reg 1 8 div_done $end
$var reg 1 9 div_busy $end
$var reg 1 : is_div_op $end
$var reg 1 ; div_op_last $end
$scope module divider_inst $end
$var wire 1 + clk $end
$var wire 1 , reset $end
$var wire 1 < start $end
$var wire 1 = is_signed $end
$var wire 1 > is_rem $end
$var wire 32 - dividend [31:0] $end
$var wire 32 . divisor [31:0] $end
$var reg 32 7 result [31:0] $end
$var reg 1 8 done $end
$var reg 1 9 busy $end
$var reg 2 ? state $end
$var reg 2 @ next_state $end
$var reg 32 A quotient [31:0] $end
$var reg 32 B next_quotient [31:0] $end
$var reg 33 C remainder [32:0] $end
$var reg 33 D next_remainder [32:0] $end
$var reg 32 E divisor_reg [31:0] $end
$var reg 32 F next_divisor_reg [31:0] $end
$var reg 6 G count [5:0] $end
$var reg 6 H next_count [5:0] $end
$var reg 32 I dividend_latch [31:0] $end
$var reg 32 J divisor_latch [31:0] $end
$var reg 1 K is_rem_latch $end
$var reg 1 L is_signed_latch $end
$var reg 32 M result_reg [31:0] $end
$scope begin Block67_4 $end
$var reg 1 N dividend_sign_calc $end
$var reg 1 O divisor_sign_calc $end
$var reg 1 P result_sign_div_calc $end
$var reg 1 Q result_sign_rem_calc $end
$scope begin Block81_5 $end
$var reg 32 R rem_val [31:0] $end
$upscope $end
$upscope $end
$scope begin Block93_7 $end
$var reg 1 S dividend_sign $end
$var reg 1 T divisor_sign $end
$var reg 32 U dividend_abs [31:0] $end
$var reg 32 V divisor_abs [31:0] $end
$scope begin Block121_8 $end
$var reg 33 W sub_result [32:0] $end
$upscope $end
$upscope $end
$upscope $end
$upscope $end
$scope task test_op $end
$upscope $end
$upscope $end
$enddefinitions $end

#0
$dumpvars
0!
1"
b0 #
b0 $
b0 %
b0 &
1'
1(
b0 )
b0 *
0+
1,
b0 -
b0 .
b0 /
b0 0
b0 1
b0 2
b0 3
04
05
06
bx 7
x8
x9
0:
x;
0<
0=
0>
bx ?
bx @
bx A
bx B
bx C
bx D
bx E
bx F
bx G
bx H
bx I
bx J
xK
xL
bx M
xN
xO
xP
xQ
bx R
0S
0T
b0 U
b0 V
bx W
$end

#5000
1!
1+
b0 7
08
09
0;
b0 ?
b0 @
b0 A
b0 B
b0 C
b0 D
b0 E
b0 F
b0 G
b0 H
b0 I
b0 J
0K
0L
b0 M

#10000
0!
0+

#15000
1!
1+

#20000
0!
0+

#25000
1!
0"
1+
0,

#30000
0!
0+

#35000
1!
b1010 #
b101 $
b10000 %
b110010 &
0'
1+
b1010 -
b101 .
b10000 /
b101 0
b110010 1
b110010 2
b110010 3
b1010 U
b101 V

#40000
0!
0+

#45000
1!
1+

#50000
0!
0+

#55000
1!
b1100100 #
b1100100 $
b10011100010000 &
b1 )
1+
b1100100 -
b1100100 .
b100 0
b10011100010000 1
b10011100010000 2
b10011100010000 3
b1100100 U
b1100100 V

#60000
0!
0+

#65000
1!
b11111111111111111111111111111011 #
b11 $
b11111111111111111111111111110001 &
b10 )
1+
b11111111111111111111111111111011 -
b11 .
b11 0
b1111111111111111111111111111111111111111111111111111111111110001 1
b1011111111111111111111111111110001 2
b1111111111111111111111111111111111111111111111111111111111110001 3
b11111111111111111111111111111011 U
b11 V

#70000
0!
0+

#75000
1!
b11111111111111111111111111111111 #
b11111111111111111111111111111111 $
b1 &
b11 )
1+
b11111111111111111111111111111111 -
b11111111111111111111111111111111 .
b11111 0
b1 1
b1111111111111111111111111111111000000000000000000000000000000001 2
b1111111111111111111111111111111100000000000000000000000000000001 3
b11111111111111111111111111111111 U
b11111111111111111111111111111111 V

#80000
0!
0+

#85000
1!
b10000000000000000000000000000000 #
b10 $
b0 &
1'
b100 )
1+
b10000000000000000000000000000000 -
b10 .
b10 0
b1111111111111111111111111111111100000000000000000000000000000000 1
b100000000000000000000000000000000 2
b1111111111111111111111111111111100000000000000000000000000000000 3
b10000000000000000000000000000000 U
b10 V

#90000
0!
0+

#95000
1!
b10001 %
b11111111111111111111111111111111 &
0'
b101 )
1+
b10001 /

#100000
0!
0+

#105000
1!
b11111111111111111111111111111111 #
b11111111111111111111111111111111 $
b0 &
1'
b110 )
1+
b11111111111111111111111111111111 -
b11111111111111111111111111111111 .
b11111 0
b1 1
b1111111111111111111111111111111000000000000000000000000000000001 2
b1111111111111111111111111111111100000000000000000000000000000001 3
b11111111111111111111111111111111 U
b11111111111111111111111111111111 V

#110000
0!
0+

#115000
1!
b11000011010100000 #
b11000011010100000 $
b10 &
0'
b111 )
1+
b11000011010100000 -
b11000011010100000 .
b0 0
b1001010100000010111110010000000000 1
b1001010100000010111110010000000000 2
b1001010100000010111110010000000000 3
b11000011010100000 U
b11000011010100000 V

#120000
0!
0+

#125000
1!
b11111111111111111111111111111111 #
b1010 $
b10010 %
b11111111111111111111111111111111 &
b1000 )
1+
b11111111111111111111111111111111 -
b1010 .
b10010 /
b1010 0
b1111111111111111111111111111111111111111111111111111111111110110 1
b100111111111111111111111111111110110 2
b1111111111111111111111111111111111111111111111111111111111110110 3
b11111111111111111111111111111111 U
b1010 V

#130000
0!
0+

#135000
1!
b101 #
b11111111111111111111111111111111 $
b100 &
b1001 )
1+
b101 -
b11111111111111111111111111111111 .
b11111 0
b1111111111111111111111111111111111111111111111111111111111111011 1
b10011111111111111111111111111111011 2
b10011111111111111111111111111111011 3
b101 U
b11111111111111111111111111111111 V

#140000
0!
0+

#145000
1!
b11111111111111111111111111111111 #
b10011 %
b11111111111111111111111111111110 &
b1010 )
1+
b11111111111111111111111111111111 -
b10011 /
b1 1
b1111111111111111111111111111111000000000000000000000000000000001 2
b1111111111111111111111111111111100000000000000000000000000000001 3
b11111111111111111111111111111111 U

#150000
0!
0+

#155000
1!
b10000000000000000000000000000000 #
b10 $
b1 &
b1011 )
1+
b10000000000000000000000000000000 -
b10 .
b10 0
b1111111111111111111111111111111100000000000000000000000000000000 1
b100000000000000000000000000000000 2
b1111111111111111111111111111111100000000000000000000000000000000 3
b10000000000000000000000000000000 U
b10 V

#160000
0!
0+

#165000
1!
b10100 #
b11 $
b10100 %
b0 &
1'
0(
b1100 )
1+
b10100 -
b11 .
b10100 /
b11 0
b111100 1
b111100 2
b111100 3
04
15
19
1:
1;
0<
1=
b1 ?
b1 @
b1 B
b10100 C
b100010 D
b11 E
b11 F
b1 H
b10100 I
b11 J
1L
b10100 U
b11 V
b10001 W

#170000
0!
0+

#175000
1!
b11111111111111111111111111101100 #
b1 *
1+
b11111111111111111111111111101100 -
b1111111111111111111111111111111111111111111111111111111111000100 1
b1011111111111111111111111111000100 2
b1111111111111111111111111111111111111111111111111111111111000100 3
b1 A
b11 B
b100010 C
b111110 D
b1 G
b10 H
1S
b11111 W

#180000
0!
0+

#185000
1!
1+
b11 A
b111 B
b111110 C
b1110110 D
b10 G
b11 H
b111011 W

#190000
0!
0+

#195000
1!
1+
b111 A
b1111 B
b1110110 C
b11100110 D
b11 G
b100 H
b1110011 W

#200000
0!
0+

#205000
1!
1+
b1111 A
b11111 B
b11100110 C
b111000110 D
b100 G
b101 H
b11100011 W

#210000
0!
0+

#215000
1!
1+
b11111 A
b111111 B
b111000110 C
b1110000110 D
b101 G
b110 H
b111000011 W

#220000
0!
0+

#225000
1!
1+
b111111 A
b1111111 B
b1110000110 C
b11100000110 D
b110 G
b111 H
b1110000011 W

#230000
0!
0+

#235000
1!
1+
b1111111 A
b11111111 B
b11100000110 C
b111000000110 D
b111 G
b1000 H
b11100000011 W

#240000
0!
0+

#245000
1!
1+
b11111111 A
b111111111 B
b111000000110 C
b1110000000110 D
b1000 G
b1001 H
b111000000011 W

#250000
0!
0+

#255000
1!
1+
b111111111 A
b1111111111 B
b1110000000110 C
b11100000000110 D
b1001 G
b1010 H
b1110000000011 W

#260000
0!
0+

#265000
1!
1+
b1111111111 A
b11111111111 B
b11100000000110 C
b111000000000110 D
b1010 G
b1011 H
b11100000000011 W

#270000
0!
0+

#275000
1!
1+
b11111111111 A
b111111111111 B
b111000000000110 C
b1110000000000110 D
b1011 G
b1100 H
b111000000000011 W

#280000
0!
0+

#285000
1!
1+
b111111111111 A
b1111111111111 B
b1110000000000110 C
b11100000000000110 D
b1100 G
b1101 H
b1110000000000011 W

#290000
0!
0+

#295000
1!
1+
b1111111111111 A
b11111111111111 B
b11100000000000110 C
b111000000000000110 D
b1101 G
b1110 H
b11100000000000011 W

#300000
0!
0+

#305000
1!
1+
b11111111111111 A
b111111111111111 B
b111000000000000110 C
b1110000000000000110 D
b1110 G
b1111 H
b111000000000000011 W

#310000
0!
0+

#315000
1!
1+
b111111111111111 A
b1111111111111111 B
b1110000000000000110 C
b11100000000000000110 D
b1111 G
b10000 H
b1110000000000000011 W

#320000
0!
0+

#325000
1!
1+
b1111111111111111 A
b11111111111111111 B
b11100000000000000110 C
b111000000000000000110 D
b10000 G
b10001 H
b11100000000000000011 W

#330000
0!
0+

#335000
1!
1+
b11111111111111111 A
b111111111111111111 B
b111000000000000000110 C
b1110000000000000000110 D
b10001 G
b10010 H
b111000000000000000011 W

#340000
0!
0+

#345000
1!
1+
b111111111111111111 A
b1111111111111111111 B
b1110000000000000000110 C
b11100000000000000000110 D
b10010 G
b10011 H
b1110000000000000000011 W

#350000
0!
0+

#355000
1!
1+
b1111111111111111111 A
b11111111111111111111 B
b11100000000000000000110 C
b111000000000000000000110 D
b10011 G
b10100 H
b11100000000000000000011 W

#360000
0!
0+

#365000
1!
1+
b11111111111111111111 A
b111111111111111111111 B
b111000000000000000000110 C
b1110000000000000000000110 D
b10100 G
b10101 H
b111000000000000000000011 W

#370000
0!
0+

#375000
1!
1+
b111111111111111111111 A
b1111111111111111111111 B
b1110000000000000000000110 C
b11100000000000000000000110 D
b10101 G
b10110 H
b1110000000000000000000011 W

#380000
0!
0+

#385000
1!
1+
b1111111111111111111111 A
b11111111111111111111111 B
b11100000000000000000000110 C
b111000000000000000000000110 D
b10110 G
b10111 H
b11100000000000000000000011 W

#390000
0!
0+

#395000
1!
1+
b11111111111111111111111 A
b111111111111111111111111 B
b111000000000000000000000110 C
b1110000000000000000000000110 D
b10111 G
b11000 H
b111000000000000000000000011 W

#400000
0!
0+

#405000
1!
1+
b111111111111111111111111 A
b1111111111111111111111111 B
b1110000000000000000000000110 C
b11100000000000000000000000110 D
b11000 G
b11001 H
b1110000000000000000000000011 W

#410000
0!
0+

#415000
1!
1+
b1111111111111111111111111 A
b11111111111111111111111111 B
b11100000000000000000000000110 C
b111000000000000000000000000110 D
b11001 G
b11010 H
b11100000000000000000000000011 W

#420000
0!
0+

#425000
1!
1+
b11111111111111111111111111 A
b111111111111111111111111111 B
b111000000000000000000000000110 C
b1110000000000000000000000000110 D
b11010 G
b11011 H
b111000000000000000000000000011 W

#430000
0!
0+

#435000
1!
1+
b111111111111111111111111111 A
b1111111111111111111111111111 B
b1110000000000000000000000000110 C
b11100000000000000000000000000110 D
b11011 G
b11100 H
b1110000000000000000000000000011 W

#440000
0!
0+

#445000
1!
1+
b1111111111111111111111111111 A
b11111111111111111111111111111 B
b11100000000000000000000000000110 C
b111000000000000000000000000000110 D
b11100 G
b11101 H
b11100000000000000000000000000011 W

#450000
0!
0+

#455000
1!
1+
b11111111111111111111111111111 A
b111111111111111111111111111110 B
b111000000000000000000000000000110 C
b110000000000000000000000000001100 D
b11101 G
b11110 H
b111000000000000000000000000000011 W

#460000
0!
0+

#465000
1!
1+
b111111111111111111111111111110 A
b1111111111111111111111111111100 B
b110000000000000000000000000001100 C
b100000000000000000000000000011000 D
b11110 G
b11111 H
b110000000000000000000000000001001 W

#470000
0!
0+

#475000
1!
1+
b10 @
b1111111111111111111111111111100 A
b11111111111111111111111111111000 B
b100000000000000000000000000011000 C
b110000 D
b11111 G
b100000 H
b100000000000000000000000000010101 W

#480000
0!
0+

#485000
1!
b11111111111111111111111111111000 &
0'
1(
1+
b11111111111111111111111111111000 7
18
09
b10 ?
b0 @
b11111111111111111111111111111000 A
b110000 C
b100000 G
b11111111111111111111111111111000 M
0N
0O
0P
0Q

#490000
0!
0+

#495000
1!
0(
1+
08
b0 ?

#500000
0!
0+

#505000
1!
b10100 #
b11111111111111111111111111111101 $
b10 *
1+
b10100 -
b11111111111111111111111111111101 .
b11101 0
b1001111111111111111111111111111000100 2
b1001111111111111111111111111111000100 3
0S
1T

