pipelined_debug.vcd
$date
   Thu Jan 29 20:58:21 2026
$end

$version
  2025.1.0
  $dumpfile ("pipelined_debug.vcd") 
$end

$timescale
  1ps
$end

$scope module tb_pipelined $end
$var reg 1 ! clk $end
$var reg 1 " reset $end
$scope module dut $end
$var wire 1 # clk $end
$var wire 1 $ reset $end
$var reg 97 % if_id_out $end
$var reg 163 & id_ex_out $end
$var reg 86 ' ex_mem_out $end
$var reg 86 ( mem_wb_out $end
$var reg 1 ) branch_taken $end
$var reg 32 * branch_target [31:0] $end
$var reg 1 + btb_update_en $end
$var reg 32 , btb_pc_update [31:0] $end
$var reg 32 - btb_target_actual [31:0] $end
$var reg 1 . btb_is_branch_or_jmp $end
$var reg 1 / bp_update_en $end
$var reg 32 0 bp_update_pc [31:0] $end
$var reg 1 1 bp_actual_taken $end
$var reg 32 2 bp_actual_target [31:0] $end
$var reg 1 3 bp_is_branch $end
$var reg 1 4 if_id_stall $end
$var reg 1 5 if_id_flush $end
$var reg 1 6 id_ex_stall $end
$var reg 1 7 id_ex_flush $end
$var reg 1 8 ex_mem_stall $end
$var reg 1 9 ex_mem_flush $end
$var reg 1 : mem_wb_stall $end
$var reg 1 ; mem_wb_flush $end
$var reg 1 < pc_stall $end
$var reg 1 = ex_stall $end
$var reg 1 > mem_stall $end
$var reg 5 ? wb_rd_addr [4:0] $end
$var reg 32 @ wb_write_data [31:0] $end
$var reg 1 A wb_reg_write $end
$var reg 97 B if_id_reg_out $end
$var reg 163 C id_ex_reg_out $end
$var reg 86 D mem_stage_out $end
$var reg 86 E ex_stage_out $end
$var reg 32 F imem_addr [31:0] $end
$var reg 32 G imem_rdata [31:0] $end
$var reg 32 H dmem_addr [31:0] $end
$var reg 32 I dmem_wdata [31:0] $end
$var reg 32 J dmem_rdata [31:0] $end
$var reg 4 K dmem_byte_en [3:0] $end
$var reg 1 L dmem_wr_en $end
$var reg 1 M dmem_rd_en $end
$scope module mem_ctrl $end
$var wire 1 # clk $end
$var wire 1 $ reset $end
$var wire 32 N imem_addr [31:0] $end
$var reg 32 G imem_rdata [31:0] $end
$var wire 32 O dmem_addr [31:0] $end
$var wire 32 P dmem_wdata [31:0] $end
$var wire 4 Q dmem_byte_en [3:0] $end
$var wire 1 R dmem_wr_en $end
$var wire 1 S dmem_rd_en $end
$var reg 32 J dmem_rdata [31:0] $end
$var reg 10 T imem_word_addr [9:0] $end
$var reg 1 U imem_rdata_en $end
$var reg 12 V dmem_byte_addr [11:0] $end
$var reg 1 W dmem_in_bounds $end
$var reg 1 X dmem_rd_en_qual $end
$var reg 1 Y dmem_wr_en_qual $end
$scope begin Block30_3 $end
$var reg 32 Z i [31:0] $end
$upscope $end
$scope begin Block73_6 $end
$var reg 32 [ i [31:0] $end
$upscope $end
$upscope $end
$scope module if_stage_inst $end
$var wire 1 # clk $end
$var wire 1 $ reset $end
$var wire 1 \ pc_stall $end
$var wire 1 ] branch_taken $end
$var wire 32 ^ branch_target [31:0] $end
$var wire 1 _ btb_update_en $end
$var wire 32 ` btb_pc_update [31:0] $end
$var wire 32 a btb_target_actual [31:0] $end
$var wire 1 b btb_is_branch_or_jmp $end
$var wire 1 c bp_update_en $end
$var wire 32 d bp_update_pc [31:0] $end
$var wire 1 e bp_actual_taken $end
$var wire 32 f bp_actual_target [31:0] $end
$var wire 1 g bp_is_branch $end
$var wire 32 h imem_rdata [31:0] $end
$var reg 32 F imem_addr [31:0] $end
$var reg 97 % if_id_out $end
$var reg 32 i pc [31:0] $end
$var reg 32 j pc_plus4 [31:0] $end
$var reg 32 k instruction [31:0] $end
$var reg 1 l pc_en $end
$var reg 33 m bp_prediction $end
$var reg 1 n predict_taken $end
$var reg 32 o predict_target [31:0] $end
$var reg 1 p is_call $end
$var reg 1 q is_return $end
$var reg 1 r ras_valid $end
$var reg 32 s ras_predicted_target [31:0] $end
$var reg 1 t btb_hit $end
$var reg 32 u btb_target_predicted [31:0] $end
$var reg 5 v rd [4:0] $end
$var reg 5 w rs1 [4:0] $end
$var reg 7 x opcode $end
$var reg 1 y is_jalr $end
$var reg 97 z xilinx_isim_temp_0_ln31_blkAssignCaching $end
$scope module pc_inst $end
$var wire 1 # clk $end
$var wire 1 $ reset $end
$var wire 1 { pc_en $end
$var wire 1 \ pc_stall $end
$var wire 1 ] branch_taken $end
$var wire 32 ^ branch_target [31:0] $end
$var wire 1 | predict_taken $end
$var wire 32 } predict_target [31:0] $end
$var reg 32 i pc [31:0] $end
$var reg 32 j pc_plus4 [31:0] $end
$var reg 32 ~ pc_next [31:0] $end
$upscope $end
$scope module ras_inst $end
$var wire 1 # clk $end
$var wire 1 $ reset $end
$var wire 1 !! push $end
$var wire 32 "! return_addr [31:0] $end
$var wire 1 #! pop $end
$var reg 32 s predicted_return [31:0] $end
$var reg 1 r valid $end
$var reg 2 $! op $end
$var reg 3 %! tos [2:0] $end
$var reg 4 &! count [3:0] $end
$var reg 1 '! pop_en $end
$var reg 1 (! push_en $end
$upscope $end
$scope module btb_inst $end
$var wire 1 # clk $end
$var wire 1 $ reset $end
$var wire 32 )! pc_lookup [31:0] $end
$var wire 1 *! lookup_en $end
$var wire 1 _ update_en $end
$var wire 32 ` pc_update [31:0] $end
$var wire 32 a target_actual [31:0] $end
$var wire 1 b is_branch_or_jmp $end
$var reg 1 t hit $end
$var reg 32 u target_predicted [31:0] $end
$var reg 64 +! valid [63:0] $end
$var reg 6 ,! lookup_index [5:0] $end
$var reg 24 -! lookup_tag [23:0] $end
$var reg 6 .! update_index [5:0] $end
$var reg 24 /! update_tag [23:0] $end
$var reg 1 0! update_btb $end
$var reg 1 1! tag_match $end
$upscope $end
$scope module bp_inst $end
$var wire 1 # clk $end
$var wire 1 $ reset $end
$var wire 32 2! pc [31:0] $end
$var wire 32 3! instruction [31:0] $end
$var wire 1 4! predict_en $end
$var wire 1 5! ras_valid $end
$var wire 32 6! ras_target [31:0] $end
$var wire 1 7! btb_hit $end
$var wire 32 8! btb_target [31:0] $end
$var wire 1 c update_en $end
$var wire 32 d update_pc [31:0] $end
$var wire 1 e actual_taken $end
$var wire 1 9! actual_target $end
$var wire 1 g is_branch $end
$var reg 33 m prediction_out $end
$var reg 8 :! predict_index [7:0] $end
$var reg 8 ;! update_index [7:0] $end
$var reg 7 <! opcode $end
$var reg 1 =! is_jal $end
$var reg 1 >! is_jalr $end
$var reg 1 ?! is_branch_instr $end
$var reg 5 @! rd [4:0] $end
$var reg 5 A! rs1 [4:0] $end
$var reg 1 B! is_return $end
$var reg 2 C! current_state $end
$var reg 1 D! predict_taken_pht $end
$var reg 1 E! take_ras $end
$var reg 1 F! take_jal $end
$var reg 1 G! take_jalr $end
$var reg 1 H! take_cond_branch $end
$var reg 1 I! counter_update_en $end
$scope begin Block111_13 $end
$var reg 32 J! i [31:0] $end
$upscope $end
$upscope $end
$upscope $end
$scope module if_id_reg_inst $end
$var wire 1 # clk $end
$var wire 1 $ reset $end
$var wire 1 K! stall $end
$var wire 1 L! flush $end
$var reg 97 % in $end
$var reg 97 B out $end
$upscope $end
$scope module id_stage_inst $end
$var wire 1 # clk $end
$var wire 1 $ reset $end
$var reg 97 B if_id_in $end
$var wire 5 M! wb_rd_addr [4:0] $end
$var wire 32 N! wb_write_data [31:0] $end
$var wire 1 O! wb_reg_write $end
$var reg 163 & id_ex_out $end
$var reg 5 P! rs1_addr [4:0] $end
$var reg 5 Q! rs2_addr [4:0] $end
$var reg 5 R! rd_addr [4:0] $end
$var reg 32 S! rs1_data [31:0] $end
$var reg 32 T! rs2_data [31:0] $end
$var reg 32 U! immediate [31:0] $end
$var reg 16 V! ctrl $end
$var reg 3 W! funct3_branch [2:0] $end
$var reg 163 X! xilinx_isim_temp_2_ln13_blkAssignCaching $end
$scope module regfile_inst $end
$var wire 1 # clk $end
$var wire 1 $ reset $end
$var wire 5 Y! rs1_addr [4:0] $end
$var wire 5 Z! rs2_addr [4:0] $end
$var wire 5 M! rd [4:0] $end
$var wire 32 N! write_data [31:0] $end
$var wire 1 O! wr_en $end
$var reg 32 S! rs1_data [31:0] $end
$var reg 32 T! rs2_data [31:0] $end
$var reg 1 [! reg_write_en $end
$var reg 32 \! rs1_data_raw [31:0] $end
$var reg 32 ]! rs2_data_raw [31:0] $end
$scope begin Block25_17 $end
$var reg 32 ^! i [31:0] $end
$upscope $end
$upscope $end
$scope module decoder_inst $end
$var wire 32 _! instruction [31:0] $end
$var reg 16 V! ctrl $end
$var reg 7 `! opcode $end
$var reg 3 a! funct3_bits [2:0] $end
$var reg 7 b! funct7_bits [6:0] $end
$upscope $end
$scope module imm_gen_inst $end
$var wire 32 _! instruction [31:0] $end
$var reg 32 U! immediate [31:0] $end
$var reg 7 c! opcode [6:0] $end
$var reg 32 d! i_imm [31:0] $end
$var reg 32 e! s_imm [31:0] $end
$var reg 32 f! b_imm [31:0] $end
$var reg 32 g! u_imm [31:0] $end
$var reg 32 h! j_imm [31:0] $end
$upscope $end
$upscope $end
$scope module id_ex_reg_inst $end
$var wire 1 # clk $end
$var wire 1 $ reset $end
$var wire 1 i! stall $end
$var wire 1 j! flush $end
$var reg 163 & in $end
$var reg 163 C out $end
$upscope $end
$scope module ex_stage_inst $end
$var wire 1 # clk $end
$var wire 1 $ reset $end
$var reg 163 C id_ex_in $end
$var wire 32 k! mem_alu_result [31:0] $end
$var wire 5 l! mem_rd_addr [4:0] $end
$var wire 1 m! mem_reg_write $end
$var wire 32 n! wb_write_data [31:0] $end
$var wire 5 o! wb_rd_addr [4:0] $end
$var wire 1 p! wb_reg_write $end
$var reg 1 + btb_update_en $end
$var reg 32 , btb_pc_update [31:0] $end
$var reg 32 - btb_target_actual [31:0] $end
$var reg 1 . btb_is_branch_or_jmp $end
$var reg 1 / bp_update_en $end
$var reg 32 0 bp_update_pc [31:0] $end
$var reg 1 1 bp_actual_taken $end
$var reg 32 2 bp_actual_target [31:0] $end
$var reg 1 3 bp_is_branch $end
$var reg 1 ) branch_taken $end
$var reg 32 * branch_target [31:0] $end
$var reg 86 E ex_mem_out $end
$var reg 1 = ex_stall $end
$var reg 32 q! alu_a [31:0] $end
$var reg 32 r! alu_b [31:0] $end
$var reg 32 s! alu_result [31:0] $end
$var reg 1 t! alu_zero $end
$var reg 1 u! alu_ready $end
$var reg 32 v! rs1_fwd [31:0] $end
$var reg 32 w! rs2_fwd [31:0] $end
$var reg 2 x! forward_a $end
$var reg 2 y! forward_b $end
$var reg 7 z! opcode $end
$var reg 3 {! funct3_branch $end
$var reg 1 |! is_jump $end
$var reg 1 }! is_branch $end
$var reg 86 ~! xilinx_isim_temp_16_ln35_blkAssignCaching $end
$scope module fwd_unit $end
$var wire 5 !" id_ex_rs1_addr [4:0] $end
$var wire 5 "" id_ex_rs2_addr [4:0] $end
$var wire 5 l! ex_mem_rd_addr [4:0] $end
$var wire 1 m! ex_mem_reg_write $end
$var wire 5 o! mem_wb_rd_addr [4:0] $end
$var wire 1 p! mem_wb_reg_write $end
$var reg 2 x! forward_a $end
$var reg 2 y! forward_b $end
$upscope $end
$scope module alu_inst $end
$var wire 1 # clk $end
$var wire 1 $ reset $end
$var wire 32 #" a [31:0] $end
$var wire 32 $" b [31:0] $end
$var wire 5 %" op $end
$var reg 1 t! zero $end
$var reg 32 s! result [31:0] $end
$var reg 1 u! ready $end
$var reg 5 &" shift_amt [4:0] $end
$var reg 64 '" mul_signed [63:0] $end
$var reg 64 (" mul_unsigned [63:0] $end
$var reg 64 )" mul_mixed [63:0] $end
$var reg 1 *" div_start $end
$var reg 1 +" div_is_signed $end
$var reg 1 ," div_is_rem $end
$var reg 32 -" div_result [31:0] $end
$var reg 1 ." div_done $end
$var reg 1 /" div_busy $end
$var reg 32 0" divider_remainder_out [31:0] $end
$var reg 1 1" is_div_op $end
$scope module divider_inst $end
$var wire 1 # clk $end
$var wire 1 $ reset $end
$var wire 1 2" start $end
$var wire 1 3" is_signed $end
$var wire 1 4" is_rem $end
$var wire 32 #" dividend [31:0] $end
$var wire 32 $" divisor [31:0] $end
$var reg 32 -" result [31:0] $end
$var reg 32 0" remainder_out [31:0] $end
$var reg 1 ." done $end
$var reg 1 /" busy $end
$var reg 2 5" state $end
$var reg 2 6" next_state $end
$var reg 33 7" reg_A [32:0] $end
$var reg 32 8" reg_Q [31:0] $end
$var reg 32 9" reg_M [31:0] $end
$var reg 6 :" count [5:0] $end
$var reg 1 ;" sign_dividend $end
$var reg 1 <" sign_divisor $end
$var reg 32 =" abs_dividend [31:0] $end
$var reg 32 >" abs_divisor [31:0] $end
$var reg 33 ?" shifted_A [32:0] $end
$var reg 33 @" alu_out [32:0] $end
$var reg 1 A" op_add $end
$var reg 1 B" sign_result $end
$var reg 1 C" sign_remainder $end
$upscope $end
$upscope $end
$scope module branch_unit_inst $end
$var wire 32 D" rs1_data [31:0] $end
$var wire 32 E" rs2_data [31:0] $end
$var wire 32 F" pc [31:0] $end
$var wire 32 G" imm [31:0] $end
$var wire 3 H" funct3 $end
$var wire 7 I" opcode $end
$var reg 1 ) branch_taken $end
$var reg 32 * branch_target [31:0] $end
$var reg 1 J" condition_met $end
$var reg 1 K" is_branch $end
$var reg 1 L" is_jal $end
$var reg 1 M" is_jalr $end
$var reg 1 N" is_jump $end
$upscope $end
$upscope $end
$scope module ex_mem_reg_inst $end
$var wire 1 # clk $end
$var wire 1 $ reset $end
$var wire 1 O" stall $end
$var wire 1 P" flush $end
$var reg 86 E in $end
$var reg 86 ' out $end
$upscope $end
$scope module mem_stage_inst $end
$var wire 1 # clk $end
$var wire 1 $ reset $end
$var reg 86 ' ex_mem_in $end
$var wire 32 Q" dmem_rdata [31:0] $end
$var reg 32 H dmem_addr [31:0] $end
$var reg 32 I dmem_wdata [31:0] $end
$var reg 4 K dmem_byte_en [3:0] $end
$var reg 1 L dmem_wr_en $end
$var reg 1 M dmem_rd_en $end
$var reg 1 > mem_stall $end
$var reg 86 D mem_wb_out $end
$var reg 32 R" mem_rdata_aligned [31:0] $end
$var reg 1 S" lsu_ready $end
$var reg 1 T" misaligned_error $end
$var reg 86 U" xilinx_isim_temp_22_ln16_blkAssignCaching $end
$scope module lsu_inst $end
$var wire 1 # clk $end
$var wire 1 $ reset $end
$var wire 32 V" addr [31:0] $end
$var wire 32 W" wdata [31:0] $end
$var wire 3 X" mem_op $end
$var wire 1 Y" mem_read $end
$var wire 1 Z" mem_write $end
$var wire 32 Q" mem_rdata_raw [31:0] $end
$var reg 32 H mem_addr [31:0] $end
$var reg 32 I mem_wdata [31:0] $end
$var reg 4 K mem_byte_en [3:0] $end
$var reg 1 L mem_wr_en $end
$var reg 1 M mem_rd_en $end
$var reg 32 R" rdata [31:0] $end
$var reg 1 S" lsu_ready $end
$var reg 1 T" misaligned_error $end
$var reg 32 [" rdata_aligned [31:0] $end
$var reg 32 \" wdata_aligned [31:0] $end
$var reg 4 ]" byte_enable [3:0] $end
$var reg 1 ^" mem_rd_wr_chk $end
$scope module load_inst $end
$var wire 32 V" addr [31:0] $end
$var wire 32 Q" mem_rdata_raw [31:0] $end
$var wire 3 X" mem_op $end
$var reg 32 [" rdata_aligned [31:0] $end
$var reg 2 _" byte_offset [1:0] $end
$var reg 8 `" byte_data [7:0] $end
$var reg 16 a" half_data [15:0] $end
$upscope $end
$scope module store_inst $end
$var wire 32 V" addr [31:0] $end
$var wire 32 W" wdata [31:0] $end
$var wire 3 X" mem_op $end
$var reg 32 \" wdata_aligned [31:0] $end
$var reg 4 ]" byte_enable [3:0] $end
$var reg 2 b" byte_offset [1:0] $end
$upscope $end
$upscope $end
$upscope $end
$scope module mem_wb_reg_inst $end
$var wire 1 # clk $end
$var wire 1 $ reset $end
$var wire 1 c" stall $end
$var wire 1 d" flush $end
$var reg 86 D in $end
$var reg 86 ( out $end
$upscope $end
$scope module wb_stage_inst $end
$var wire 1 # clk $end
$var wire 1 $ reset $end
$var reg 86 ( mem_wb_in $end
$var reg 5 ? wb_rd_addr [4:0] $end
$var reg 32 @ wb_write_data [31:0] $end
$var reg 1 A wb_reg_write $end
$upscope $end
$scope module hazard_unit_inst $end
$var wire 5 e" id_ex_rs1_addr [4:0] $end
$var wire 5 f" id_ex_rs2_addr [4:0] $end
$var wire 5 g" id_ex_rd_addr [4:0] $end
$var wire 1 h" id_ex_mem_read $end
$var wire 1 i" id_ex_valid $end
$var wire 5 j" if_id_rs1_addr [4:0] $end
$var wire 5 k" if_id_rs2_addr [4:0] $end
$var wire 1 l" branch_taken $end
$var wire 1 m" ex_stall $end
$var reg 1 < pc_stall $end
$var reg 1 4 if_id_stall $end
$var reg 1 5 if_id_flush $end
$var reg 1 6 id_ex_stall $end
$var reg 1 7 id_ex_flush $end
$var reg 1 8 ex_mem_stall $end
$var reg 1 9 ex_mem_flush $end
$var reg 1 : mem_wb_stall $end
$var reg 1 ; mem_wb_flush $end
$var reg 1 n" load_use_hazard $end
$upscope $end
$upscope $end
$scope begin Block89_44 $end
$var reg 32 o" i [31:0] $end
$upscope $end
$scope task load_program $end
$upscope $end
$scope task check_reg $end
$upscope $end
$upscope $end
$enddefinitions $end

#0
$dumpvars
0!
x!!
bx !"
1"
bx "!
bx ""
0#
x#!
bx #"
1$
bx $!
bx $"
bx1 %
bx %!
bx %"
bx00000000000000000000000000000000xxxxxxxxxxxxxxxxxx0000000000000010x &
bx &!
bx &"
bx '
x'!
bx '"
bx (
x(!
bx ("
x)
bx )!
bx )"
bx *
1*!
x*"
x+
bx +!
x+"
bx ,
bx ,!
x,"
bx -
bx -!
bx -"
x.
bx .!
x."
x/
bx /!
x/"
bx 0
x0!
bx 0"
x1
x1!
x1"
bx 2
bx 2!
x2"
x3
bx 3!
x3"
04
14!
x4"
05
x5!
bx 5"
06
bx 6!
bx 6"
07
x7!
bx 7"
08
bx 8!
bx 8"
09
x9!
bx 9"
0:
bx :!
bx :"
0;
bx ;!
x;"
0<
bx <!
x<"
x=
x=!
bx ="
0>
x>!
bx >"
bx ?
x?!
bx ?"
b0 @
bx @!
bx @"
xA
bx A!
xA"
bx B
xB!
xB"
bx C
bx C!
xC"
bx00000000000000000000000000000000xxxxxxxxxxxxxxxxxxxxxx D
xD!
bx D"
bx E
xE!
bx E"
bx F
xF!
bx F"
bx G
xG!
bx G"
bx H
xH!
bx H"
bx I
xI!
bx11 I"
b0 J
b0 J!
0J"
b1111 K
0K!
xK"
xL
0L!
xL"
xM
bx M!
xM"
bx N
b0 N!
xN"
bx O
xO!
0O"
bx P
bx P!
0P"
b1111 Q
bx Q!
b0 Q"
xR
bx R!
b0 R"
xS
bx S!
1S"
bx T
bx T!
0T"
xU
b0 U!
bx00000000000000000000000000000000xxxxxxxxxxxxxxxxxxxxxx U"
bx V
b10 V!
bx V"
xW
bx W!
bx W"
xX
bx00000000000000000000000000000000xxxxxxxxxxxxxxxxxx0000000000000010x X!
bx X"
xY
bx Y!
xY"
b0 Z
bx Z!
xZ"
b0 [
x[!
b0 ["
0\
bx \!
bx \"
x]
bx ]!
b1111 ]"
bx ^
b0 ^!
x^"
x_
bx _!
bx _"
bx `
bx `!
bx `"
bx a
bx a!
b0 a"
xb
bx b!
bx b"
xc
bx c!
0c"
bx d
bx d!
0d"
xe
bx e!
bx e"
bx f
bx0 f!
bx f"
xg
bx000000000000 g!
bx g"
bx h
bx0 h!
xh"
bx i
0i!
xi"
bx j
0j!
bx j"
bx k
bx k!
bx k"
1l
bx l!
xl"
b0xxxxxxxxxxxxxxxxxxxxxxxxxxxxxxxx m
xm!
xm"
0n
b0 n!
xn"
bx o
bx o!
b0 o"
xp
xp!
xq
bx q!
xr
bx r!
bx s
bx s!
xt
xt!
bx u
xu!
bx v
bx v!
bx w
bx w!
bx x
b0 x!
xy
b0 y!
bx1 z
bx11 z!
1{
bx {!
0|
x|!
bx }
x}!
bx ~
bx ~!
$end

#5000
1!
0!!
b0 !"
b100 "!
b0 ""
1#
0#!
b0 #"
b0 $!
b0 $"
b101000000000001010010011000000000000000000000000000001001 %
b0 %!
b0 %"
b10001000000000100 &
b0 &!
b0 &"
b0 '
0'!
b0 '"
b0 (
1(!
b0 ("
0)
b0 )!
b0 )"
b0 *
0*"
0+
b0 +!
0+"
b0 ,
b0 ,!
0,"
b0 -
b0 -!
b0 -"
0.
b0 .!
0."
0/
b0 /!
0/"
b0 0
00!
b0 0"
01
01!
01"
b0 2
b0 2!
02"
03
b101000000000001010010011 3!
03"
04"
05!
b0 5"
b0 6!
07!
b0 7"
b100 8!
b0 8"
09!
b0 9"
b0 :!
b0 :"
b0 ;!
b10011 <!
0=
0=!
b0 ="
0>!
b0 >"
b0 ?
0?!
b0 ?"
b101 @!
b0 @"
0A
b0 A!
0A"
b10011000000000000000000000000000000000 B
0B!
b0 C
b1 C!
b0 D
0D!
b0 D"
b0 E
0E!
b0 E"
b0 F
0F!
b0 F"
b101000000000001010010011 G
0G!
b0 G"
b0 H
0H!
b0 H"
b0 I
0I!
b10011 I"
b100000000 J!
b1 K
0K"
0L
0L"
0M
b0 M!
0M"
b0 N
0N"
b0 O
0O!
b0 P
b0 P!
b1 Q
b0 Q!
0R
b0 R!
0S
b0 S!
b0 T
b0 T!
1U
b0 U"
b0 V
b1000100000000010 V!
b0 V"
1W
b0 W!
b0 W"
0X
b10001000000000100 X!
b0 X"
0Y
b0 Y!
0Y"
b1000000000000 Z
b0 Z!
0Z"
0[!
b0 \!
b0 \"
0]
b0 ]!
b1 ]"
b0 ^
b100000 ^!
0^"
0_
b10011 _!
b0 _"
b0 `
b10011 `!
b0 `"
b0 a
b0 a!
0b
b0 b!
b0 b"
0c
b10011 c!
b0 d
b0 d!
0e
b0 e!
b0 e"
b0 f
b0 f!
b0 f"
0g
b0 g!
b0 g"
b101000000000001010010011 h
b0 h!
0h"
b0 i
0i"
b100 j
b0 j"
b101000000000001010010011 k
b0 k!
b0 k"
b0 l!
0l"
b100 m
0m!
0m"
0n"
b100 o
b0 o!
0p
0p!
0q
b0 q!
0r
b0 r!
b0 s
b0 s!
0t
1t!
b100 u
1u!
b101 v
b0 v!
b0 w
b0 w!
b10011 x
0y
b101000000000001010010011000000000000000000000000000001001 z
b10011 z!
b0 {!
0|!
b100 }
0}!
b100 ~
b0 ~!

#10000
0!
0#

#15000
1!
1#
b100000000 J!
b1000000000000 Z
b100000 ^!

#20000
0!
0#

#25000
1!
1#
b100000000 J!
b1000000000000 Z
b100000 ^!

#30000
0!
0#

#35000
1!
1#
b100000000 J!
b1000000000000 Z
b100000 ^!

#40000
0!
0#

#45000
1!
0"
b1000 "!
1#
0$
b10000000001010000000000001100010011000000000000000000000000000010001 %
b101000000000010100010110001000000000101 &
b100 )!
b1 ,!
b100 2!
b1010000000000001100010011 3!
b1000 8!
b1 :!
b110 @!
b101000000000001010010011000000000000000000000000000001001 B
b10001000000000100 C
b10001000000000100 E
b100 F
b1010000000000001100010011 G
b100 N
b1010 Q!
b101 R!
b1 T
b1010 U!
b101000000000010100010110001000000000101 X!
b1010 Z!
b101000000000001010010011 _!
b1010 d!
b101 e!
b100000000100 f!
b101000000000000000000000 g!
b1010000000000001100010011 h
b1010 h!
b100 i
b1000 j
b1010000000000001100010011 k
b1010 k"
b1000 m
b1000 o
b1000 u
b110 v
b10000000001010000000000001100010011000000000000000000000000000010001 z
b1000 }
b1000 ~
b10001000000000100 ~!

#50000
0!
0#

#55000
1!
b1100 "!
b1010 ""
1#
b1010 $"
b100000000000011000101000001110110011000000000000000000000000000011001 %
b10000000000000000000000000000000000000000000000000000000000000000000000000000000000000000000001010000000000101000011010001000000000101 &
b1010 &"
b10001000000000100 '
b1000 )!
b1010 *
b10 ,!
b1010 -
b1010 2
b1000 2!
b11000101000001110110011 3!
b1100 8!
09!
b10 :!
b110011 <!
b1010 >"
b111 @!
b101 A!
b10000000001010000000000001100010011000000000000000000000000000010001 B
b101000000000010100010110001000000000101 C
b10001000000000100 D
b1010000000000000000000000000000000000010110001000000000101 E
b1000 F
b11000101000001110110011 G
b1010 G"
b1111 K
b1000 N
b1111 Q
b10100 Q!
b110 R!
b10 T
b10100 U!
b10001000000000100 U"
b10000000000000000000000000000000000000000000000000000000000000000000000000000000000000000000001010000000000101000011010001000000000101 X!
b10 X"
b10100 Z!
b1111 ]"
b1010 ^
b1010000000000001100010011 _!
b1010 a
b10100 d!
b110 e!
b1010 f
b110 f!
b1010 f"
b1010000000000000000000000 g!
b101 g"
b11000101000001110110011 h
b10100 h!
b1000 i
1i"
b1100 j
b11000101000001110110011 k
b10100 k"
b1100 m
1m!
b1100 o
b1010 r!
b1010 s!
0t!
b1100 u
b111 v
b101 w
b110011 x
b100000000000011000101000001110110011000000000000000000000000000011001 z
b1100 }
b1100 ~
b1010000000000000000000000000000000000010110001000000000101 ~!

#60000
0!
0#

#65000
1!
b10000 "!
b10100 ""
1#
b10100 $"
b110001000000010100110000010000110011000000000000000000000000000100001 %
b100000000000000000000000000000000000000000000000000000000000000000000000000000000000000000000000000000000101001100011110000000000000101 &
b10100 &"
b1010000000000000000000000000000000000010110001000000000101 '
b10001000000000100 (
b1100 )!
b11000 *
b100 ,
b11 ,!
b11000 -
b1 .!
b100 0
b11000 2
b1100 2!
b1000000010100110000010000110011 3!
b10000 8!
09!
b11 :!
b1 ;!
b10100 >"
b1000 @!
b110 A!
b100000000000011000101000001110110011000000000000000000000000000011001 B
b10000000000000000000000000000000000000000000000000000000000000000000000000000000000000000000001010000000000101000011010001000000000101 C
b1010000000000000000000000000000000000010110001000000000101 D
b10100000000000000000000000000000000000011010001000000000101 E
b1100 F
b100 F"
b1000000010100110000010000110011 G
b10100 G"
b1010 H
b1100 N
b1010 O
b101 P!
b110 Q!
b111 R!
b11 T
b0 U!
b1010000000000000000000000000000000000010110001000000000101 U"
b1010 V
b1000000000000010 V!
b1010 V"
b100000000000000000000000000000000000000000000000000000000000000000000000000000000000000000000000000000000101001100011110000000000000101 X!
b101 Y!
b110 Z!
b1111 ]"
b11000 ^
b11000101000001110110011 _!
b10 _"
b100 `
b110011 `!
b11000 a
b10 b"
b110011 c!
b100 d
b110 d!
b111 e!
b11000 f
b100000000110 f!
b10100 f"
b11000101000000000000000 g!
b110 g"
b1000000010100110000010000110011 h
b101000000000000110 h!
b1100 i
b10000 j
b101 j"
b1000000010100110000010000110011 k
b1010 k!
b110 k"
b101 l!
b10000 m
b10000 o
b10100 r!
b10100 s!
b10000 u
b1000 v
b110 w
b110001000000010100110000010000110011000000000000000000000000000100001 z
b10000 }
b10000 ~
b10100000000000000000000000000000000000011010001000000000101 ~!

#70000
0!
0#

#75000
1!
b101 !"
b10100 "!
b110 ""
1#
b1010 #"
b10100 $"
b1000000000000100000111111010010110011000000000000000000000000000101001 %
b110000000000000000000000000000000000000000000000000000000000000010100000000000000000000000000000000000000110001010100010000000000010101 &
b10100 &"
b10100000000000000000000000000000000000011010001000000000101 '
b11001000 '"
b1010000000000000000000000000000000000010110001000000000101 (
b11001000 ("
b10000 )!
b11001000 )"
b1000 *
b1000 ,
b100 ,!
b1000 -
b10 .!
b1000 0
b1000 2
b10000 2!
b100000111111010010110011 3!
b10100 8!
09!
b100 :!
b10 ;!
b1010 ="
b10100 >"
b101 ?
b1010 @
b1001 @!
1A
b111 A!
b110001000000010100110000010000110011000000000000000000000000000100001 B
b100000000000000000000000000000000000000000000000000000000000000000000000000000000000000000000000000000000101001100011110000000000000101 C
b10100000000000000000000000000000000000011010001000000000101 D
b1010 D"
b11110000000000000000000000000000101000011110000000000000101 E
b10100 E"
b10000 F
b1000 F"
b100000111111010010110011 G
b0 G"
b10100 H
b101 M!
b10000 N
b1010 N!
b10100 O
1O!
b110 P!
b101 Q!
b1000 R!
b100 T
b1010 T!
b10100000000000000000000000000000000000011010001000000000101 U"
b10100 V
b1000000000001010 V!
b10100 V"
b110000000000000000000000000000000000000000000000000000000000000010100000000000000000000000000000000000000110001010100010000000000010101 X!
b110 Y!
b101 Z!
1[!
b1111 ]"
b1000 ^
b1000000010100110000010000110011 _!
b0 _"
b1000 `
b1000 a
b100000 b!
b0 b"
b1000 d
b10000000101 d!
b10000001000 e!
b101 e"
b1000 f
b10000001000 f!
b110 f"
b1000000010100110000000000000000 g!
b111 g"
b100000111111010010110011 h
b110000110000000100 h!
b10000 i
b10100 j
b110 j"
b100000111111010010110011 k
b10100 k!
b101 k"
b110 l!
b10100 m
b1010 n!
b10100 o
b101 o!
1p!
b1010 q!
b10100 r!
b11110 s!
0t!
b10100 u
b1001 v
b1010 v!
b111 w
b10100 w!
b1 x!
b10 y!
b1000000000000100000111111010010110011000000000000000000000000000101001 z
b10100 }
b10100 ~
b11110000000000000000000000000000101000011110000000000000101 ~!

#80000
0!
0#

