pipelined.vcd
$date
   Fri Jan 16 21:51:56 2026
$end

$version
  2025.1.0
  $dumpfile ("pipelined.vcd") 
$end

$timescale
  1ps
$end

$scope module tb_pipelined $end
$var reg 1 ! clk $end
$var reg 1 " reset $end
$scope module dut $end
$var wire 1 # clk $end
$var wire 1 $ reset $end
$var reg 97 % if_id_out $end
$var reg 162 & id_ex_out $end
$var reg 85 ' ex_mem_out $end
$var reg 85 ( mem_wb_out $end
$var reg 1 ) branch_taken $end
$var reg 32 * branch_target [31:0] $end
$var reg 1 + if_id_stall $end
$var reg 1 , if_id_flush $end
$var reg 1 - id_ex_stall $end
$var reg 1 . id_ex_flush $end
$var reg 1 / ex_mem_stall $end
$var reg 1 0 ex_mem_flush $end
$var reg 1 1 mem_wb_stall $end
$var reg 1 2 mem_wb_flush $end
$var reg 1 3 pc_stall $end
$var reg 5 4 wb_rd_addr [4:0] $end
$var reg 32 5 wb_write_data [31:0] $end
$var reg 1 6 wb_reg_write $end
$var reg 97 7 if_id_reg_out $end
$var reg 162 8 id_ex_reg_out $end
$var reg 85 9 mem_stage_out $end
$var reg 85 : ex_stage_out $end
$scope module if_stage_inst $end
$var wire 1 # clk $end
$var wire 1 $ reset $end
$var wire 1 ; branch_taken $end
$var wire 32 < branch_target [31:0] $end
$var wire 1 = pc_stall $end
$var reg 97 % if_id_out $end
$var reg 32 > pc [31:0] $end
$var reg 32 ? pc_next [31:0] $end
$var reg 32 @ pc_plus4 [31:0] $end
$var reg 32 A instruction [31:0] $end
$var reg 10 B imem_addr [9:0] $end
$var reg 1 C pc_en $end
$var reg 97 D xilinx_isim_temp_0_ln9_blkAssignCaching $end
$scope module pc_inst $end
$var wire 1 # clk $end
$var wire 1 $ reset $end
$var wire 1 E pc_en $end
$var wire 32 F pc_next [31:0] $end
$var reg 32 > pc [31:0] $end
$upscope $end
$scope module imem_inst $end
$var wire 10 G address [9:0] $end
$var reg 32 A instruction [31:0] $end
$upscope $end
$upscope $end
$scope module if_id_reg_inst $end
$var wire 1 # clk $end
$var wire 1 $ reset $end
$var wire 1 H stall $end
$var wire 1 I flush $end
$var reg 97 % in $end
$var reg 97 7 out $end
$upscope $end
$scope module id_stage_inst $end
$var wire 1 # clk $end
$var wire 1 $ reset $end
$var reg 97 7 if_id_in $end
$var wire 5 J wb_rd_addr [4:0] $end
$var wire 32 K wb_write_data [31:0] $end
$var wire 1 L wb_reg_write $end
$var reg 162 & id_ex_out $end
$var reg 5 M rs1_addr [4:0] $end
$var reg 5 N rs2_addr [4:0] $end
$var reg 5 O rd_addr [4:0] $end
$var reg 32 P rs1_data [31:0] $end
$var reg 32 Q rs2_data [31:0] $end
$var reg 32 R immediate [31:0] $end
$var reg 15 S ctrl $end
$var reg 3 T funct3_branch [2:0] $end
$var reg 162 U xilinx_isim_temp_1_ln13_blkAssignCaching $end
$scope module regfile_inst $end
$var wire 1 # clk $end
$var wire 1 $ reset $end
$var wire 5 V rs1_addr [4:0] $end
$var wire 5 W rs2_addr [4:0] $end
$var wire 5 J rd [4:0] $end
$var wire 32 K write_data [31:0] $end
$var wire 1 L wr_en $end
$var reg 32 P rs1_data [31:0] $end
$var reg 32 Q rs2_data [31:0] $end
$scope begin Block21_6 $end
$var reg 32 X i [31:0] $end
$upscope $end
$upscope $end
$scope module decoder_inst $end
$var wire 32 Y instruction [31:0] $end
$var reg 15 S ctrl $end
$var reg 7 Z opcode $end
$var reg 3 [ funct3_bits [2:0] $end
$var reg 7 \ funct7_bits [6:0] $end
$upscope $end
$scope module imm_gen_inst $end
$var wire 32 Y instruction [31:0] $end
$var reg 32 R immediate [31:0] $end
$var reg 7 ] opcode [6:0] $end
$var reg 32 ^ i_imm [31:0] $end
$var reg 32 _ s_imm [31:0] $end
$var reg 32 ` b_imm [31:0] $end
$var reg 32 a u_imm [31:0] $end
$var reg 32 b j_imm [31:0] $end
$upscope $end
$upscope $end
$scope module id_ex_reg_inst $end
$var wire 1 # clk $end
$var wire 1 $ reset $end
$var wire 1 c stall $end
$var wire 1 d flush $end
$var reg 162 & in $end
$var reg 162 8 out $end
$upscope $end
$scope module ex_stage_inst $end
$var wire 1 # clk $end
$var wire 1 $ reset $end
$var reg 162 8 id_ex_in $end
$var wire 32 e mem_alu_result [31:0] $end
$var wire 5 f mem_rd_addr [4:0] $end
$var wire 1 g mem_reg_write $end
$var wire 32 h wb_write_data [31:0] $end
$var wire 5 i wb_rd_addr [4:0] $end
$var wire 1 j wb_reg_write $end
$var reg 1 ) branch_taken $end
$var reg 32 * branch_target [31:0] $end
$var reg 85 : ex_mem_out $end
$var reg 32 k alu_a [31:0] $end
$var reg 32 l alu_b [31:0] $end
$var reg 32 m alu_result [31:0] $end
$var reg 1 n alu_zero $end
$var reg 32 o rs1_fwd [31:0] $end
$var reg 32 p rs2_fwd [31:0] $end
$var reg 2 q forward_a $end
$var reg 2 r forward_b $end
$var reg 7 s opcode $end
$var reg 3 t funct3_branch $end
$var reg 1 u is_jump $end
$var reg 85 v xilinx_isim_temp_10_ln22_blkAssignCaching $end
$scope module fwd_unit $end
$var wire 5 w id_ex_rs1_addr [4:0] $end
$var wire 5 x id_ex_rs2_addr [4:0] $end
$var wire 5 f ex_mem_rd_addr [4:0] $end
$var wire 1 g ex_mem_reg_write $end
$var wire 5 i mem_wb_rd_addr [4:0] $end
$var wire 1 j mem_wb_reg_write $end
$var reg 2 q forward_a $end
$var reg 2 r forward_b $end
$upscope $end
$scope module alu_inst $end
$var wire 32 y a [31:0] $end
$var wire 32 z b [31:0] $end
$var wire 4 { op $end
$var reg 1 n zero $end
$var reg 32 m result [31:0] $end
$var reg 5 | shift_amt [4:0] $end
$upscope $end
$scope module branch_unit_inst $end
$var wire 32 } rs1_data [31:0] $end
$var wire 32 ~ rs2_data [31:0] $end
$var wire 32 !! pc [31:0] $end
$var wire 32 "! imm [31:0] $end
$var wire 3 #! funct3 $end
$var wire 7 $! opcode $end
$var reg 1 ) branch_taken $end
$var reg 32 * branch_target [31:0] $end
$var reg 1 %! condition_met $end
$var reg 1 &! is_branch $end
$var reg 1 '! is_jal $end
$var reg 1 (! is_jalr $end
$upscope $end
$upscope $end
$scope module ex_mem_reg_inst $end
$var wire 1 # clk $end
$var wire 1 $ reset $end
$var wire 1 )! stall $end
$var wire 1 *! flush $end
$var reg 85 : in $end
$var reg 85 ' out $end
$upscope $end
$scope module mem_stage_inst $end
$var wire 1 # clk $end
$var wire 1 $ reset $end
$var reg 85 ' ex_mem_in $end
$var reg 85 9 mem_wb_out $end
$var reg 32 +! mem_rdata [31:0] $end
$var reg 85 ,! xilinx_isim_temp_16_ln7_blkAssignCaching $end
$scope module dmem_inst $end
$var wire 1 # clk $end
$var wire 32 -! addr [31:0] $end
$var wire 32 .! wdata [31:0] $end
$var wire 1 /! wr_en $end
$var wire 1 0! rd_en $end
$var wire 3 1! mem_op $end
$var reg 32 +! rdata [31:0] $end
$var reg 32 2! word_addr [31:0] $end
$var reg 2 3! byte_offset [1:0] $end
$var reg 32 4! word [31:0] $end
$upscope $end
$upscope $end
$scope module mem_wb_reg_inst $end
$var wire 1 # clk $end
$var wire 1 $ reset $end
$var wire 1 5! stall $end
$var wire 1 6! flush $end
$var reg 85 9 in $end
$var reg 85 ( out $end
$upscope $end
$scope module wb_stage_inst $end
$var wire 1 # clk $end
$var wire 1 $ reset $end
$var reg 85 ( mem_wb_in $end
$var reg 5 4 wb_rd_addr [4:0] $end
$var reg 32 5 wb_write_data [31:0] $end
$var reg 1 6 wb_reg_write $end
$upscope $end
$scope module hazard_unit_inst $end
$var wire 5 7! id_ex_rs1_addr [4:0] $end
$var wire 5 8! id_ex_rs2_addr [4:0] $end
$var wire 5 9! id_ex_rd_addr [4:0] $end
$var wire 1 :! id_ex_mem_read $end
$var wire 1 ;! id_ex_valid $end
$var wire 5 <! if_id_rs1_addr [4:0] $end
$var wire 5 =! if_id_rs2_addr [4:0] $end
$var wire 1 >! branch_taken $end
$var reg 1 3 pc_stall $end
$var reg 1 + if_id_stall $end
$var reg 1 , if_id_flush $end
$var reg 1 . id_ex_flush $end
$var reg 1 / ex_mem_stall $end
$var reg 1 0 ex_mem_flush $end
$var reg 1 1 mem_wb_stall $end
$var reg 1 2 mem_wb_flush $end
$var reg 1 ?! load_use_hazard $end
$upscope $end
$upscope $end
$scope task load_hex $end
$upscope $end
$scope task verify_loaded_program $end
$upscope $end
$scope task run_cycles $end
$upscope $end
$scope task display_registers $end
$upscope $end
$upscope $end
$enddefinitions $end

#0
$dumpvars
0!
bx !!
1"
bx "!
0#
bx #!
1$
bx11 $!
bx1 %
0%!
bx00000000000000000000000000000000xxxxxxxxxxxxxxxxxx000000000000010x &
x&!
bx '
x'!
bx (
x(!
x)
0)!
bx *
0*!
0+
b0 +!
0,
bx00000000000000000000000000000000xxxxxxxxxxxxxxxxxxxxx ,!
x-
bx -!
0.
bx .!
0/
x/!
00
x0!
01
bx 1!
02
bx00 2!
03
bx 3!
bx 4
b0 4!
b0 5
05!
x6
06!
bx 7
bx 7!
bx 8
bx 8!
bx00000000000000000000000000000000xxxxxxxxxxxxxxxxxxxxx 9
bx 9!
bx :
x:!
x;
x;!
bx <
bx <!
0=
bx =!
bx >
x>!
bx ?
x?!
bx @
bx A
bx B
1C
bx1 D
1E
bx F
bx G
0H
0I
bx J
b0 K
xL
bx M
bx N
bx O
bx P
bx Q
b0 R
b10 S
bx T
bx00000000000000000000000000000000xxxxxxxxxxxxxxxxxx000000000000010x U
bx V
bx W
b0 X
bx Y
bx Z
bx [
bx \
bx ]
bx ^
bx _
bx0 `
bx000000000000 a
bx0 b
xc
0d
bx e
bx f
xg
b0 h
bx i
xj
bx k
bx l
bx m
xn
bx o
bx p
b0 q
b0 r
bx11 s
bx t
xu
bx v
bx w
bx x
bx y
bx z
bx {
bx |
bx }
bx ~
$end

#5000
0!
b0 !!
b0 "!
0#
b0 #!
b10011 $!
b10100000000000010010011000000000000000000000000000001001 %
b1000100000000100 &
0&!
b0 '
0'!
b0 (
0(!
0)
b0 *
b0 ,!
b0 -!
b0 .!
0/!
00!
b0 1!
b0 2!
b0 3!
b0 4
06
b10011000000000000000000000000000100110 7
b0 7!
b0 8
b0 8!
b0 9
b0 9!
b0 :
0:!
0;
0;!
b0 <
b0 <!
b0 =!
b0 >
0>!
b100 ?
0?!
b100 @
b10100000000000010010011 A
b0 B
b10100000000000010010011000000000000000000000000000001001 D
b100 F
b0 G
b0 J
0L
b0 M
b0 N
b0 O
b0 P
b0 Q
b100010000000010 S
b0 T
b1000100000000100 U
b0 V
b0 W
b100000 X
b10011 Y
b10011 Z
b0 [
b0 \
b10011 ]
b0 ^
b0 _
b0 `
b0 a
b0 b
b0 e
b0 f
0g
b0 i
0j
b0 k
b0 l
b0 m
1n
b0 o
b0 p
b10011 s
b0 t
0u
b0 v
b0 w
b0 x
b0 y
b0 z
b0 {
b0 |
b0 }
b0 ~

#10000
0!
0#
b100000 X

#15000
0!
0"
0#
0$
b10000000000001100000000000100010011000000000000000000000000000010001 %
b1010000000000101000011000100000000101 &
b10100000000000010010011000000000000000000000000000001001 7
b101 =!
b100 >
b1000 ?
b1000 @
b1100000000000100010011 A
b1 B
b10000000000001100000000000100010011000000000000000000000000000010001 D
b1000 F
b1 G
b101 N
b1 O
b101 R
b1010000000000101000011000100000000101 U
b101 W
b10100000000000010010011 Y
b101 ^
b1 _
b100000000000 `
b10100000000000000000000 a
b100000000100 b

#20000
0!
0#
b100000000000001000001000000110110011000000000000000000000000000011001 %
b1000000000000000000000000000000000000000000000000000000000000000000000000000000000000000000000000110000000000011000101000100000000101 &
b10000000000001100000000000100010011000000000000000000000000000010001 7
b11 =!
b1000 >
b1100 ?
b1100 @
b1000001000000110110011 A
b10 B
b100000000000001000001000000110110011000000000000000000000000000011001 D
b1100 F
b10 G
b11 N
b10 O
b11 R
b1000000000000000000000000000000000000000000000000000000000000000000000000000000000000000000000000110000000000011000101000100000000101 U
b11 W
b1100000000000100010011 Y
b11 ^
b10 _
b10 `
b1100000000000000000000 a
b100000000010 b

#25000
0!
0#
b110000000000000000000000000000010011000000000000000000000000000100001 %
b10000000000000000000000000000000000000000000000000000000000000000000000000000000000000000000000000000000000100010000111000000000000101 &
b100000000000001000001000000110110011000000000000000000000000000011001 7
b1 <!
b10 =!
b1100 >
b10000 ?
b10000 @
b10011 A
b11 B
b110000000000000000000000000000010011000000000000000000000000000100001 D
b10000 F
b11 G
b1 M
b10 N
b11 O
b0 R
b100000000000010 S
b10000000000000000000000000000000000000000000000000000000000000000000000000000000000000000000000000000000000100010000111000000000000101 U
b1 V
b10 W
b1000001000000110110011 Y
b110011 Z
b110011 ]
b10 ^
b11 _
b100000000010 `
b1000001000000000000000 a
b1000000000000010 b

#30000
0!
0#
b10000xxxxxxxxxxxxxxxxxxxxxxxxxxxxxxxx000000000000000000000000000101001 %
b11000000000000000000000000000000000000000000000000000000000000000000000000000000000000000000000000000000000000000000001000100000000101 &
b110000000000000000000000000000010011000000000000000000000000000100001 7
b0 <!
b0 =!
b10000 >
b10100 ?
b10100 @
bx A
b100 B
b10000xxxxxxxxxxxxxxxxxxxxxxxxxxxxxxxx000000000000000000000000000101001 D
b10100 F
b100 G
b0 M
b0 N
b0 O
b100010000000010 S
b11000000000000000000000000000000000000000000000000000000000000000000000000000000000000000000000000000000000000000000001000100000000101 U
b0 V
b0 W
b10011 Y
b10011 Z
b10011 ]
b0 ^
b0 _
b0 `
b0 a
b0 b

#35000
0!
0#
b10100xxxxxxxxxxxxxxxxxxxxxxxxxxxxxxxx000000000000000000000000000110001 %
b10000xxxxxxxxxxxxxxxxxxxxxxxxxxxxxxxxxxxxxxxxxxxxxxxxxxxxxxxxxxxxxxxx00000000000000000000000000000000xxxxxxxxxxxxxxxxxx0000000000000101 &
b10000xxxxxxxxxxxxxxxxxxxxxxxxxxxxxxxx000000000000000000000000000101001 7
bx <!
bx =!
b10100 >
b11000 ?
b11000 @
b101 B
b10100xxxxxxxxxxxxxxxxxxxxxxxxxxxxxxxx000000000000000000000000000110001 D
b11000 F
b101 G
bx M
bx N
bx O
bx P
bx Q
b10 S
bx T
b10000xxxxxxxxxxxxxxxxxxxxxxxxxxxxxxxxxxxxxxxxxxxxxxxxxxxxxxxxxxxxxxxx00000000000000000000000000000000xxxxxxxxxxxxxxxxxx0000000000000101 U
bx V
bx W
bx Y
bx Z
bx [
bx \
bx ]
bx ^
bx _
bx0 `
bx000000000000 a
bx0 b

#40000
0!
0#
b11000xxxxxxxxxxxxxxxxxxxxxxxxxxxxxxxx000000000000000000000000000111001 %
b10100xxxxxxxxxxxxxxxxxxxxxxxxxxxxxxxxxxxxxxxxxxxxxxxxxxxxxxxxxxxxxxxx00000000000000000000000000000000xxxxxxxxxxxxxxxxxx0000000000000101 &
b10100xxxxxxxxxxxxxxxxxxxxxxxxxxxxxxxx000000000000000000000000000110001 7
b11000 >
b11100 ?
b11100 @
b110 B
b11000xxxxxxxxxxxxxxxxxxxxxxxxxxxxxxxx000000000000000000000000000111001 D
b11100 F
b110 G
b10100xxxxxxxxxxxxxxxxxxxxxxxxxxxxxxxxxxxxxxxxxxxxxxxxxxxxxxxxxxxxxxxx00000000000000000000000000000000xxxxxxxxxxxxxxxxxx0000000000000101 U

#45000
0!
0#
b11100xxxxxxxxxxxxxxxxxxxxxxxxxxxxxxxx000000000000000000000000001000001 %
b11000xxxxxxxxxxxxxxxxxxxxxxxxxxxxxxxxxxxxxxxxxxxxxxxxxxxxxxxxxxxxxxxx00000000000000000000000000000000xxxxxxxxxxxxxxxxxx0000000000000101 &
b11000xxxxxxxxxxxxxxxxxxxxxxxxxxxxxxxx000000000000000000000000000111001 7
b11100 >
b100000 ?
b100000 @
b111 B
b11100xxxxxxxxxxxxxxxxxxxxxxxxxxxxxxxx000000000000000000000000001000001 D
b100000 F
b111 G
b11000xxxxxxxxxxxxxxxxxxxxxxxxxxxxxxxxxxxxxxxxxxxxxxxxxxxxxxxxxxxxxxxx00000000000000000000000000000000xxxxxxxxxxxxxxxxxx0000000000000101 U

#50000
0!
0#
b100000xxxxxxxxxxxxxxxxxxxxxxxxxxxxxxxx000000000000000000000000001001001 %
b11100xxxxxxxxxxxxxxxxxxxxxxxxxxxxxxxxxxxxxxxxxxxxxxxxxxxxxxxxxxxxxxxx00000000000000000000000000000000xxxxxxxxxxxxxxxxxx0000000000000101 &
b11100xxxxxxxxxxxxxxxxxxxxxxxxxxxxxxxx000000000000000000000000001000001 7
b100000 >
b100100 ?
b100100 @
b1000 B
b100000xxxxxxxxxxxxxxxxxxxxxxxxxxxxxxxx000000000000000000000000001001001 D
b100100 F
b1000 G
b11100xxxxxxxxxxxxxxxxxxxxxxxxxxxxxxxxxxxxxxxxxxxxxxxxxxxxxxxxxxxxxxxx00000000000000000000000000000000xxxxxxxxxxxxxxxxxx0000000000000101 U

#55000
0!
0#
b100100xxxxxxxxxxxxxxxxxxxxxxxxxxxxxxxx000000000000000000000000001010001 %
b100000xxxxxxxxxxxxxxxxxxxxxxxxxxxxxxxxxxxxxxxxxxxxxxxxxxxxxxxxxxxxxxxx00000000000000000000000000000000xxxxxxxxxxxxxxxxxx0000000000000101 &
b100000xxxxxxxxxxxxxxxxxxxxxxxxxxxxxxxx000000000000000000000000001001001 7
b100100 >
b101000 ?
b101000 @
b1001 B
b100100xxxxxxxxxxxxxxxxxxxxxxxxxxxxxxxx000000000000000000000000001010001 D
b101000 F
b1001 G
b100000xxxxxxxxxxxxxxxxxxxxxxxxxxxxxxxxxxxxxxxxxxxxxxxxxxxxxxxxxxxxxxxx00000000000000000000000000000000xxxxxxxxxxxxxxxxxx0000000000000101 U

#60000
0!
0#
b101000xxxxxxxxxxxxxxxxxxxxxxxxxxxxxxxx000000000000000000000000001011001 %
b100100xxxxxxxxxxxxxxxxxxxxxxxxxxxxxxxxxxxxxxxxxxxxxxxxxxxxxxxxxxxxxxxx00000000000000000000000000000000xxxxxxxxxxxxxxxxxx0000000000000101 &
b100100xxxxxxxxxxxxxxxxxxxxxxxxxxxxxxxx000000000000000000000000001010001 7
b101000 >
b101100 ?
b101100 @
b1010 B
b101000xxxxxxxxxxxxxxxxxxxxxxxxxxxxxxxx000000000000000000000000001011001 D
b101100 F
b1010 G
b100100xxxxxxxxxxxxxxxxxxxxxxxxxxxxxxxxxxxxxxxxxxxxxxxxxxxxxxxxxxxxxxxx00000000000000000000000000000000xxxxxxxxxxxxxxxxxx0000000000000101 U

#65000
0!
0#
b101100xxxxxxxxxxxxxxxxxxxxxxxxxxxxxxxx000000000000000000000000001100001 %
b101000xxxxxxxxxxxxxxxxxxxxxxxxxxxxxxxxxxxxxxxxxxxxxxxxxxxxxxxxxxxxxxxx00000000000000000000000000000000xxxxxxxxxxxxxxxxxx0000000000000101 &
b101000xxxxxxxxxxxxxxxxxxxxxxxxxxxxxxxx000000000000000000000000001011001 7
b101100 >
b110000 ?
b110000 @
b1011 B
b101100xxxxxxxxxxxxxxxxxxxxxxxxxxxxxxxx000000000000000000000000001100001 D
b110000 F
b1011 G
b101000xxxxxxxxxxxxxxxxxxxxxxxxxxxxxxxxxxxxxxxxxxxxxxxxxxxxxxxxxxxxxxxx00000000000000000000000000000000xxxxxxxxxxxxxxxxxx0000000000000101 U

#70000
0!
0#
b110000xxxxxxxxxxxxxxxxxxxxxxxxxxxxxxxx000000000000000000000000001101001 %
b101100xxxxxxxxxxxxxxxxxxxxxxxxxxxxxxxxxxxxxxxxxxxxxxxxxxxxxxxxxxxxxxxx00000000000000000000000000000000xxxxxxxxxxxxxxxxxx0000000000000101 &
b101100xxxxxxxxxxxxxxxxxxxxxxxxxxxxxxxx000000000000000000000000001100001 7
b110000 >
b110100 ?
b110100 @
b1100 B
b110000xxxxxxxxxxxxxxxxxxxxxxxxxxxxxxxx000000000000000000000000001101001 D
b110100 F
b1100 G
b101100xxxxxxxxxxxxxxxxxxxxxxxxxxxxxxxxxxxxxxxxxxxxxxxxxxxxxxxxxxxxxxxx00000000000000000000000000000000xxxxxxxxxxxxxxxxxx0000000000000101 U

#75000
0!
0#
b110100xxxxxxxxxxxxxxxxxxxxxxxxxxxxxxxx000000000000000000000000001110001 %
b110000xxxxxxxxxxxxxxxxxxxxxxxxxxxxxxxxxxxxxxxxxxxxxxxxxxxxxxxxxxxxxxxx00000000000000000000000000000000xxxxxxxxxxxxxxxxxx0000000000000101 &
b110000xxxxxxxxxxxxxxxxxxxxxxxxxxxxxxxx000000000000000000000000001101001 7
b110100 >
b111000 ?
b111000 @
b1101 B
b110100xxxxxxxxxxxxxxxxxxxxxxxxxxxxxxxx000000000000000000000000001110001 D
b111000 F
b1101 G
b110000xxxxxxxxxxxxxxxxxxxxxxxxxxxxxxxxxxxxxxxxxxxxxxxxxxxxxxxxxxxxxxxx00000000000000000000000000000000xxxxxxxxxxxxxxxxxx0000000000000101 U

#80000
0!
0#
b111000xxxxxxxxxxxxxxxxxxxxxxxxxxxxxxxx000000000000000000000000001111001 %
b110100xxxxxxxxxxxxxxxxxxxxxxxxxxxxxxxxxxxxxxxxxxxxxxxxxxxxxxxxxxxxxxxx00000000000000000000000000000000xxxxxxxxxxxxxxxxxx0000000000000101 &
b110100xxxxxxxxxxxxxxxxxxxxxxxxxxxxxxxx000000000000000000000000001110001 7
b111000 >
b111100 ?
b111100 @
b1110 B
b111000xxxxxxxxxxxxxxxxxxxxxxxxxxxxxxxx000000000000000000000000001111001 D
b111100 F
b1110 G
b110100xxxxxxxxxxxxxxxxxxxxxxxxxxxxxxxxxxxxxxxxxxxxxxxxxxxxxxxxxxxxxxxx00000000000000000000000000000000xxxxxxxxxxxxxxxxxx0000000000000101 U

#85000
0!
0#
b111100xxxxxxxxxxxxxxxxxxxxxxxxxxxxxxxx000000000000000000000000010000001 %
b111000xxxxxxxxxxxxxxxxxxxxxxxxxxxxxxxxxxxxxxxxxxxxxxxxxxxxxxxxxxxxxxxx00000000000000000000000000000000xxxxxxxxxxxxxxxxxx0000000000000101 &
b111000xxxxxxxxxxxxxxxxxxxxxxxxxxxxxxxx000000000000000000000000001111001 7
b111100 >
b1000000 ?
b1000000 @
b1111 B
b111100xxxxxxxxxxxxxxxxxxxxxxxxxxxxxxxx000000000000000000000000010000001 D
b1000000 F
b1111 G
b111000xxxxxxxxxxxxxxxxxxxxxxxxxxxxxxxxxxxxxxxxxxxxxxxxxxxxxxxxxxxxxxxx00000000000000000000000000000000xxxxxxxxxxxxxxxxxx0000000000000101 U

#90000
0!
0#
b1000000xxxxxxxxxxxxxxxxxxxxxxxxxxxxxxxx000000000000000000000000010001001 %
b111100xxxxxxxxxxxxxxxxxxxxxxxxxxxxxxxxxxxxxxxxxxxxxxxxxxxxxxxxxxxxxxxx00000000000000000000000000000000xxxxxxxxxxxxxxxxxx0000000000000101 &
b111100xxxxxxxxxxxxxxxxxxxxxxxxxxxxxxxx000000000000000000000000010000001 7
b1000000 >
b1000100 ?
b1000100 @
b10000 B
b1000000xxxxxxxxxxxxxxxxxxxxxxxxxxxxxxxx000000000000000000000000010001001 D
b1000100 F
b10000 G
b111100xxxxxxxxxxxxxxxxxxxxxxxxxxxxxxxxxxxxxxxxxxxxxxxxxxxxxxxxxxxxxxxx00000000000000000000000000000000xxxxxxxxxxxxxxxxxx0000000000000101 U

#95000
0!
0#
b1000100xxxxxxxxxxxxxxxxxxxxxxxxxxxxxxxx000000000000000000000000010010001 %
b1000000xxxxxxxxxxxxxxxxxxxxxxxxxxxxxxxxxxxxxxxxxxxxxxxxxxxxxxxxxxxxxxxx00000000000000000000000000000000xxxxxxxxxxxxxxxxxx0000000000000101 &
b1000000xxxxxxxxxxxxxxxxxxxxxxxxxxxxxxxx000000000000000000000000010001001 7
b1000100 >
b1001000 ?
b1001000 @
b10001 B
b1000100xxxxxxxxxxxxxxxxxxxxxxxxxxxxxxxx000000000000000000000000010010001 D
b1001000 F
b10001 G
b1000000xxxxxxxxxxxxxxxxxxxxxxxxxxxxxxxxxxxxxxxxxxxxxxxxxxxxxxxxxxxxxxxx00000000000000000000000000000000xxxxxxxxxxxxxxxxxx0000000000000101 U

#100000
0!
0#
b1001000xxxxxxxxxxxxxxxxxxxxxxxxxxxxxxxx000000000000000000000000010011001 %
b1000100xxxxxxxxxxxxxxxxxxxxxxxxxxxxxxxxxxxxxxxxxxxxxxxxxxxxxxxxxxxxxxxx00000000000000000000000000000000xxxxxxxxxxxxxxxxxx0000000000000101 &
b1000100xxxxxxxxxxxxxxxxxxxxxxxxxxxxxxxx000000000000000000000000010010001 7
b1001000 >
b1001100 ?
b1001100 @
b10010 B
b1001000xxxxxxxxxxxxxxxxxxxxxxxxxxxxxxxx000000000000000000000000010011001 D
b1001100 F
b10010 G
b1000100xxxxxxxxxxxxxxxxxxxxxxxxxxxxxxxxxxxxxxxxxxxxxxxxxxxxxxxxxxxxxxxx00000000000000000000000000000000xxxxxxxxxxxxxxxxxx0000000000000101 U

#105000
0!
0#
b1001100xxxxxxxxxxxxxxxxxxxxxxxxxxxxxxxx000000000000000000000000010100001 %
b1001000xxxxxxxxxxxxxxxxxxxxxxxxxxxxxxxxxxxxxxxxxxxxxxxxxxxxxxxxxxxxxxxx00000000000000000000000000000000xxxxxxxxxxxxxxxxxx0000000000000101 &
b1001000xxxxxxxxxxxxxxxxxxxxxxxxxxxxxxxx000000000000000000000000010011001 7
b1001100 >
b1010000 ?
b1010000 @
b10011 B
b1001100xxxxxxxxxxxxxxxxxxxxxxxxxxxxxxxx000000000000000000000000010100001 D
b1010000 F
b10011 G
b1001000xxxxxxxxxxxxxxxxxxxxxxxxxxxxxxxxxxxxxxxxxxxxxxxxxxxxxxxxxxxxxxxx00000000000000000000000000000000xxxxxxxxxxxxxxxxxx0000000000000101 U

#110000
0!
0#
b1010000xxxxxxxxxxxxxxxxxxxxxxxxxxxxxxxx000000000000000000000000010101001 %
b1001100xxxxxxxxxxxxxxxxxxxxxxxxxxxxxxxxxxxxxxxxxxxxxxxxxxxxxxxxxxxxxxxx00000000000000000000000000000000xxxxxxxxxxxxxxxxxx0000000000000101 &
b1001100xxxxxxxxxxxxxxxxxxxxxxxxxxxxxxxx000000000000000000000000010100001 7
b1010000 >
b1010100 ?
b1010100 @
b10100 B
b1010000xxxxxxxxxxxxxxxxxxxxxxxxxxxxxxxx000000000000000000000000010101001 D
b1010100 F
b10100 G
b1001100xxxxxxxxxxxxxxxxxxxxxxxxxxxxxxxxxxxxxxxxxxxxxxxxxxxxxxxxxxxxxxxx00000000000000000000000000000000xxxxxxxxxxxxxxxxxx0000000000000101 U

